date,deal_id,dsp_id,ssp_id,pos,deal_bids,had_deal_response,requests
2017-07-21,1R-RX1-09125-20170127248412,bidswitch,appnexus,-1,0,3,160116
2017-07-21,1R-RX1-09125-20170127248412,bidswitch,floor6,-1,0,0,837
2017-07-21,1R-RX1-09125-20170127248412,bidswitch,kiosked,-1,0,0,264
2017-07-21,1R-RX1-09125-20170127248412,bidswitch,monarchads,-1,0,0,1
2017-07-21,1R-RX1-09125-20170127248412,bidswitch,openx,-1,2,3,539592
2017-07-21,1R-RX1-09125-20170127248412,bidswitch,pubmatic,-1,0,1,66598
2017-07-21,1R-RX1-09125-20170127248412,bidswitch,pulse,-1,0,0,16566
2017-07-21,1R-RX1-09125-20170127248412,bidswitch,rmp1r1,-1,1,1,976
2017-07-21,1R-RX1-09125-20170127248412,bidswitch,rubicon,-1,0,28,170957
2017-07-21,1R-RX1-09125-20170127248412,bidswitch,sonobi,-1,0,0,99101
2017-07-21,1R-RX1-09125-20170127248412,bidswitch,sovrn,-1,0,10,239352
2017-07-21,1R-RX1-09125-20170127248412,bidswitch,teadstv,-1,0,0,386
2017-07-21,1R-RX1-09125-20170127248412,bidswitch,technorati,-1,0,0,258
2017-07-21,1R-RX1-09125-20170127248412,bidswitch,underdogmedia,-1,0,0,311
2017-07-21,1R-RX1-12027-20170706284008,bidswitch,appnexus,-1,6,7,21245
2017-07-21,1R-RX1-12027-20170706284008,bidswitch,floor6,-1,1,1,16622
2017-07-21,1R-RX1-12027-20170706284008,bidswitch,kiosked,-1,0,0,49
2017-07-21,1R-RX1-12027-20170706284008,bidswitch,openx,-1,114,115,1207618
2017-07-21,1R-RX1-12027-20170706284008,bidswitch,pubmatic,-1,264,264,217985
2017-07-21,1R-RX1-12027-20170706284008,bidswitch,pulse,-1,31,31,22026
2017-07-21,1R-RX1-12027-20170706284008,bidswitch,rmp1r1,-1,0,0,136
2017-07-21,1R-RX1-12027-20170706284008,bidswitch,rubicon,-1,83,85,252783
2017-07-21,1R-RX1-12027-20170706284008,bidswitch,sonobi,-1,1,1,71006
2017-07-21,1R-RX1-12027-20170706284008,bidswitch,sovrn,-1,23,23,113227
2017-07-21,1R-RX1-12027-20170706284008,bidswitch,teadstv,-1,0,0,246
2017-07-21,1R-RX1-12027-20170706284008,bidswitch,technorati,-1,0,0,102
2017-07-21,1R-RX1-12027-20170706284008,bidswitch,underdogmedia,-1,0,0,517
2017-07-21,1R-RX1-12027-20170706284008,bidswitchrmp,rmp1r1,-1,0,0,135
2017-07-21,1R-RX1-12027-20170706284008,bidswitchrmp,rmphb,-1,50,50,85215
2017-07-21,1R-RX1-12027-20170706284008,bidswitchrmp,rmpssp,-1,1,1,26848
2017-07-21,1R-RX1-12027-20170706284008,mediamathtest,appnexus,-1,0,0,14873
2017-07-21,1R-RX1-12027-20170706284008,mediamathtest,floor6,-1,0,0,3764
2017-07-21,1R-RX1-12027-20170706284008,mediamathtest,kiosked,-1,0,0,55
2017-07-21,1R-RX1-12027-20170706284008,mediamathtest,openx,-1,0,0,634163
2017-07-21,1R-RX1-12027-20170706284008,mediamathtest,pubmatic,-1,0,0,206477
2017-07-21,1R-RX1-12027-20170706284008,mediamathtest,pulse,-1,0,0,21898
2017-07-21,1R-RX1-12027-20170706284008,mediamathtest,rmp1r1,-1,0,0,247
2017-07-21,1R-RX1-12027-20170706284008,mediamathtest,rmphb,-1,0,169,85977
2017-07-21,1R-RX1-12027-20170706284008,mediamathtest,rmpssp,-1,0,1,20946
2017-07-21,1R-RX1-12027-20170706284008,mediamathtest,sonobi,-1,0,0,63486
2017-07-21,1R-RX1-12027-20170706284008,mediamathtest,sovrn,-1,0,0,168171
2017-07-21,1R-RX1-12027-20170706284008,mediamathtest,switchconcepts,-1,0,0,4414
2017-07-21,1R-RX1-12027-20170706284008,mediamathtest,teadstv,-1,0,0,247
2017-07-21,1R-RX1-12027-20170706284008,mediamathtest,technorati,-1,0,0,105
2017-07-21,1R-RX1-12027-20170706284008,mediamathtest,underdogmedia,-1,0,0,451
2017-07-21,1R-RX1-12027-20170706284008,tradedesk,floor6,-1,0,0,16285
2017-07-21,1R-RX1-12027-20170706284008,tradedesk,mobfox,-1,0,0,1043904
2017-07-21,1R-RX1-12027-20170706284008,tradedesk,rmp1r1,-1,0,0,275
2017-07-21,1R-RX1-12027-20170706284008,tradedesk,rmphb,-1,0,0,118058
2017-07-21,1R-RX1-12027-20170706284008,tradedesk,rmpssp,-1,0,0,55263
2017-07-21,1R-RX1-12027-20170706284008,tradedesk,rubicon,-1,0,0,406549
2017-07-21,1R-RX1-12027-20170706284008,tradedesk,sonobi,-1,0,0,58364
2017-07-21,1R-RX1-12027-20170706284008,tradedesk,sovrn,-1,0,0,260735
2017-07-21,1R-RX1-12027-20170706284008,tradedesk,switchconcepts,-1,0,0,4851
2017-07-21,1R-RX1-12027-20170706284008,tradedesk,technorati,-1,0,0,329
2017-07-21,1R-RX1-12027-20170706284008,tradedesk,underdogmedia,-1,0,0,387
2017-07-21,1R-RX1-12027-20170706284008,tradedeskex,pubmatic,-1,0,0,23716
2017-07-21,1R-RX1-13678-20170711407663,nuviad,appnexus,-1,0,178,675
2017-07-21,1R-RX1-13678-20170711407663,nuviad,kiosked,-1,0,0,4
2017-07-21,1R-RX1-13678-20170711407663,nuviad,nativeads,-1,0,1,71
2017-07-21,1R-RX1-13678-20170711407663,nuviad,pubmatic,-1,0,20,122
2017-07-21,1R-RX1-13678-20170711407663,nuviad,pulse,-1,0,84,693
2017-07-21,1R-RX1-13678-20170711407663,nuviad,rmp1r1,-1,0,35,1998
2017-07-21,1R-RX1-13678-20170711407663,nuviad,rmphb,-1,0,993,9361
2017-07-21,1R-RX1-13678-20170711407663,nuviad,sonobi,-1,0,39,643
2017-07-21,1R-RX1-13678-20170711407663,nuviad,switchconcepts,-1,0,0,1
2017-07-21,1R-RX1-24973-20170706662924,bidswitch,appnexus,-1,0,0,5
2017-07-21,1R-RX1-24973-20170706662924,bidswitch,pubmatic,-1,0,0,1
2017-07-21,1R-RX1-24973-20170706662924,bidswitch,sovrn,-1,0,0,5
2017-07-21,1R-RX1-24973-20170706662924,mediamathtest,sovrn,-1,0,0,5
2017-07-21,1R-RX1-24973-20170706662924,tradedesk,sovrn,-1,0,0,14
2017-07-21,1R-RX1-30247-20170127851378,bidswitch,appnexus,-1,28,37,122294
2017-07-21,1R-RX1-30247-20170127851378,bidswitch,floor6,-1,0,0,1357
2017-07-21,1R-RX1-30247-20170127851378,bidswitch,kiosked,-1,0,0,1733
2017-07-21,1R-RX1-30247-20170127851378,bidswitch,monarchads,-1,0,0,6
2017-07-21,1R-RX1-30247-20170127851378,bidswitch,openx,-1,376,378,1119765
2017-07-21,1R-RX1-30247-20170127851378,bidswitch,pubmatic,-1,126,127,280038
2017-07-21,1R-RX1-30247-20170127851378,bidswitch,pulse,-1,105,122,158669
2017-07-21,1R-RX1-30247-20170127851378,bidswitch,rmp1r1,-1,12,12,34727
2017-07-21,1R-RX1-30247-20170127851378,bidswitch,rubicon,-1,198,207,274952
2017-07-21,1R-RX1-30247-20170127851378,bidswitch,sonobi,-1,48,48,179919
2017-07-21,1R-RX1-30247-20170127851378,bidswitch,sovrn,-1,147,148,497157
2017-07-21,1R-RX1-30247-20170127851378,bidswitch,technorati,-1,1,1,4300
2017-07-21,1R-RX1-30247-20170127851378,bidswitch,underdogmedia,-1,0,0,6771
2017-07-21,1R-RX1-32115-20170623681196,bidswitch,appnexus,-1,0,0,5
2017-07-21,1R-RX1-32115-20170623681196,bidswitch,pubmatic,-1,0,0,1
2017-07-21,1R-RX1-32115-20170623681196,bidswitch,sovrn,-1,0,0,5
2017-07-21,1R-RX1-32115-20170623681196,mediamathtest,sovrn,-1,0,0,5
2017-07-21,1R-RX1-32115-20170623681196,tradedesk,rmp1r1,-1,0,0,28
2017-07-21,1R-RX1-32115-20170623681196,tradedesk,sovrn,-1,0,0,14
2017-07-21,1R-RX1-47436-20170711475615,nuviad,appnexus,-1,0,178,675
2017-07-21,1R-RX1-47436-20170711475615,nuviad,kiosked,-1,0,0,4
2017-07-21,1R-RX1-47436-20170711475615,nuviad,nativeads,-1,0,1,71
2017-07-21,1R-RX1-47436-20170711475615,nuviad,pubmatic,-1,0,20,122
2017-07-21,1R-RX1-47436-20170711475615,nuviad,pulse,-1,0,84,693
2017-07-21,1R-RX1-47436-20170711475615,nuviad,rmp1r1,-1,0,35,1998
2017-07-21,1R-RX1-47436-20170711475615,nuviad,rmphb,-1,0,993,9361
2017-07-21,1R-RX1-47436-20170711475615,nuviad,sonobi,-1,0,39,643
2017-07-21,1R-RX1-47436-20170711475615,nuviad,switchconcepts,-1,0,0,1
2017-07-21,1R-RX1-48721-20170714691888,tradedesk,rmp1r1,-1,0,0,58
2017-07-21,1R-RX1-48721-20170714691888,tradedesk,rmphb,-1,0,79,8989
2017-07-21,1R-RX1-48721-20170714691888,tradedesk,rubicon,-1,0,0,92
2017-07-21,1R-RX1-48721-20170714691888,tradedesk,sonobi,-1,0,187,7906
2017-07-21,1R-RX1-48721-20170714691888,tradedesk,sovrn,-1,0,0,7938
2017-07-21,1R-RX1-48721-20170714691888,tradedesk,underdogmedia,-1,0,77,2322
2017-07-21,1R-RX1-48721-20170714691888,tradedeskex,pubmatic,-1,0,40,4074
2017-07-21,1R-RX1-52990-20170615086651,tradedesk,floor6,-1,0,0,1122
2017-07-21,1R-RX1-52990-20170615086651,tradedesk,mobfox,-1,0,0,1520296
2017-07-21,1R-RX1-52990-20170615086651,tradedesk,operamedia,-1,0,0,22725
2017-07-21,1R-RX1-52990-20170615086651,tradedesk,rmp1r1,-1,0,0,2715
2017-07-21,1R-RX1-52990-20170615086651,tradedesk,rmphb,-1,0,79,151781
2017-07-21,1R-RX1-52990-20170615086651,tradedesk,rmpssp,-1,0,0,62633
2017-07-21,1R-RX1-52990-20170615086651,tradedesk,rubicon,-1,0,0,1175306
2017-07-21,1R-RX1-52990-20170615086651,tradedesk,sonobi,-1,0,187,141886
2017-07-21,1R-RX1-52990-20170615086651,tradedesk,sovrn,-1,0,0,178548
2017-07-21,1R-RX1-52990-20170615086651,tradedesk,switchconcepts,-1,0,0,102
2017-07-21,1R-RX1-52990-20170615086651,tradedesk,technorati,-1,0,0,21
2017-07-21,1R-RX1-52990-20170615086651,tradedesk,underdogmedia,-1,0,77,3730
2017-07-21,1R-RX1-52990-20170615086651,tradedeskex,pubmatic,-1,0,40,34149
2017-07-21,1R-RX1-55683-20170314086472,mediamathtest,rmphb,-1,5192,5192,136785
2017-07-21,1R-RX1-55683-20170314086472,mediamathtest,rmpssp,-1,530,530,28736
2017-07-21,1R-RX1-56987-20170711365389,nuviad,appnexus,-1,0,178,676
2017-07-21,1R-RX1-56987-20170711365389,nuviad,kiosked,-1,0,0,4
2017-07-21,1R-RX1-56987-20170711365389,nuviad,monarchads,-1,0,0,1
2017-07-21,1R-RX1-56987-20170711365389,nuviad,nativeads,-1,0,1,71
2017-07-21,1R-RX1-56987-20170711365389,nuviad,pubmatic,-1,0,20,122
2017-07-21,1R-RX1-56987-20170711365389,nuviad,pulse,-1,0,84,693
2017-07-21,1R-RX1-56987-20170711365389,nuviad,rmp1r1,-1,0,35,2000
2017-07-21,1R-RX1-56987-20170711365389,nuviad,rmphb,-1,0,1066,10409
2017-07-21,1R-RX1-56987-20170711365389,nuviad,sonobi,-1,0,39,644
2017-07-21,1R-RX1-56987-20170711365389,nuviad,switchconcepts,-1,0,0,1
2017-07-21,1R-RX1-60960-20170420873644,mediamathtest,appnexus,-1,0,0,68307
2017-07-21,1R-RX1-60960-20170420873644,mediamathtest,floor6,-1,0,0,26707
2017-07-21,1R-RX1-60960-20170420873644,mediamathtest,kiosked,-1,0,0,13492
2017-07-21,1R-RX1-60960-20170420873644,mediamathtest,openx,-1,0,0,4616207
2017-07-21,1R-RX1-60960-20170420873644,mediamathtest,pubmatic,-1,0,0,1212936
2017-07-21,1R-RX1-60960-20170420873644,mediamathtest,pulse,-1,0,0,298650
2017-07-21,1R-RX1-60960-20170420873644,mediamathtest,rmp1r1,-1,0,0,19533
2017-07-21,1R-RX1-60960-20170420873644,mediamathtest,rmphb,-1,0,5192,461450
2017-07-21,1R-RX1-60960-20170420873644,mediamathtest,rmpssp,-1,0,530,118170
2017-07-21,1R-RX1-60960-20170420873644,mediamathtest,sonobi,-1,0,0,820816
2017-07-21,1R-RX1-60960-20170420873644,mediamathtest,sovrn,-1,0,0,1186495
2017-07-21,1R-RX1-60960-20170420873644,mediamathtest,switchconcepts,-1,0,0,33732
2017-07-21,1R-RX1-60960-20170420873644,mediamathtest,teadstv,-1,0,0,2789
2017-07-21,1R-RX1-60960-20170420873644,mediamathtest,technorati,-1,0,0,7931
2017-07-21,1R-RX1-60960-20170420873644,mediamathtest,underdogmedia,-1,0,0,23057
2017-07-21,1R-RX1-62234-20170608324905,turn,rmphb,-1,6,6,46609
2017-07-21,1R-RX1-62234-20170608324905,turn,rmpssp,-1,0,0,17040
2017-07-21,1R-RX1-69109-20170713146865,turn,mobfox,-1,0,0,677
2017-07-21,1R-RX1-69109-20170713146865,turn,nativeads,-1,0,0,40
2017-07-21,1R-RX1-69109-20170713146865,turn,pulse,-1,0,0,43
2017-07-21,1R-RX1-69109-20170713146865,turn,q1media,-1,0,0,1
2017-07-21,1R-RX1-77968-20170208947875,bidswitch,appnexus,-1,9,9,523
2017-07-21,1R-RX1-77968-20170208947875,bidswitch,openx,-1,0,0,50
2017-07-21,1R-RX1-77968-20170208947875,bidswitch,pubmatic,-1,0,0,7736
2017-07-21,1R-RX1-77968-20170208947875,bidswitch,pulse,-1,0,0,286
2017-07-21,1R-RX1-77968-20170208947875,bidswitch,rmp1r1,-1,0,0,191
2017-07-21,1R-RX1-77968-20170208947875,bidswitch,rubicon,-1,0,65,47272
2017-07-21,1R-RX1-77968-20170208947875,bidswitch,sonobi,-1,0,0,7
2017-07-21,1R-RX1-77968-20170208947875,bidswitch,sovrn,-1,0,0,32723
2017-07-21,1R-RX1-77968-20170208947875,bidswitchrmp,rmp1r1,-1,0,0,192
2017-07-21,1R-RX1-82655-20170630661336,mediamathtest,rmp1r1,-1,0,0,18554
2017-07-21,1R-RX1-82655-20170630661336,mediamathtest,rmphb,-1,0,3165,196566
2017-07-21,1R-RX1-82655-20170630661336,mediamathtest,rmpssp,-1,0,183,34578
2017-07-21,1R-RX1-89685-20170711510795,nuviad,appnexus,-1,178,178,676
2017-07-21,1R-RX1-89685-20170711510795,nuviad,kiosked,-1,0,0,4
2017-07-21,1R-RX1-89685-20170711510795,nuviad,monarchads,-1,0,0,1
2017-07-21,1R-RX1-89685-20170711510795,nuviad,nativeads,-1,1,1,71
2017-07-21,1R-RX1-89685-20170711510795,nuviad,pubmatic,-1,20,20,122
2017-07-21,1R-RX1-89685-20170711510795,nuviad,pulse,-1,84,84,693
2017-07-21,1R-RX1-89685-20170711510795,nuviad,rmp1r1,-1,35,35,2000
2017-07-21,1R-RX1-89685-20170711510795,nuviad,rmphb,-1,1066,1066,10409
2017-07-21,1R-RX1-89685-20170711510795,nuviad,sonobi,-1,39,39,644
2017-07-21,1R-RX1-89685-20170711510795,nuviad,switchconcepts,-1,0,0,1
2017-07-21,1R-RX1-90097-20170712319534,bidswitch,openx,-1,0,0,9
2017-07-21,1R-RX1-90097-20170712319534,bidswitch,pubmatic,-1,0,0,1
2017-07-21,1R-RX1-90097-20170712319534,bidswitch,pulse,-1,0,0,3
2017-07-21,1R-RX1-90097-20170712319534,bidswitch,rubicon,-1,0,0,3
2017-07-21,1R-RX1-90097-20170712319534,bidswitch,sonobi,-1,0,0,5
2017-07-21,1R-RX1-90097-20170712319534,bidswitch,sovrn,-1,0,0,6
2017-07-21,1R-RX1-90097-20170712319534,turn,appnexus,-1,0,0,780
2017-07-21,1R-RX1-90097-20170712319534,turn,floor6,-1,0,0,59
2017-07-21,1R-RX1-90097-20170712319534,turn,kiosked,-1,0,0,30
2017-07-21,1R-RX1-90097-20170712319534,turn,monarchads,-1,0,0,1
2017-07-21,1R-RX1-90097-20170712319534,turn,nativeads,-1,0,0,52
2017-07-21,1R-RX1-90097-20170712319534,turn,pubmatic,-1,0,0,2660
2017-07-21,1R-RX1-90097-20170712319534,turn,pulse,-1,0,0,479
2017-07-21,1R-RX1-90097-20170712319534,turn,rmp1r1,-1,0,0,16
2017-07-21,1R-RX1-90097-20170712319534,turn,rmphb,-1,0,0,421
2017-07-21,1R-RX1-90097-20170712319534,turn,rmpssp,-1,0,0,169
2017-07-21,1R-RX1-90097-20170712319534,turn,sonobi,-1,0,0,897
2017-07-21,1R-RX1-90097-20170712319534,turn,sovrn,-1,0,0,2401
2017-07-21,1R-RX1-90097-20170712319534,turn,switchconcepts,-1,0,0,82
2017-07-21,1R-RX1-90097-20170712319534,turn,technorati,-1,0,0,18
2017-07-21,1R-RX1-90097-20170712319534,turn,underdogmedia,-1,0,0,14
2017-07-21,1R-RX1-90762-20170714593244,tradedesk,rmp1r1,-1,0,0,2
2017-07-21,1R-RX1-90762-20170714593244,tradedesk,rmphb,-1,79,79,8989
2017-07-21,1R-RX1-90762-20170714593244,tradedesk,rmpssp,-1,0,0,45
2017-07-21,1R-RX1-90762-20170714593244,tradedesk,rubicon,-1,0,0,46
2017-07-21,1R-RX1-90762-20170714593244,tradedesk,sonobi,-1,187,187,7969
2017-07-21,1R-RX1-90762-20170714593244,tradedesk,sovrn,-1,0,0,128
2017-07-21,1R-RX1-90762-20170714593244,tradedesk,underdogmedia,-1,77,77,2322
2017-07-21,1R-RX1-90762-20170714593244,tradedeskex,pubmatic,-1,47,47,4186
2017-07-22,1R-RX1-09125-20170127248412,bidswitch,appnexus,-1,0,0,153541
2017-07-22,1R-RX1-09125-20170127248412,bidswitch,floor6,-1,0,0,969
2017-07-22,1R-RX1-09125-20170127248412,bidswitch,kiosked,-1,0,0,266
2017-07-22,1R-RX1-09125-20170127248412,bidswitch,monarchads,-1,0,0,1
2017-07-22,1R-RX1-09125-20170127248412,bidswitch,openx,-1,1,3,591897
2017-07-22,1R-RX1-09125-20170127248412,bidswitch,pubmatic,-1,0,0,65012
2017-07-22,1R-RX1-09125-20170127248412,bidswitch,pulse,-1,0,0,18589
2017-07-22,1R-RX1-09125-20170127248412,bidswitch,rmp1r1,-1,0,0,952
2017-07-22,1R-RX1-09125-20170127248412,bidswitch,rubicon,-1,1,11,182474
2017-07-22,1R-RX1-09125-20170127248412,bidswitch,sonobi,-1,0,0,111167
2017-07-22,1R-RX1-09125-20170127248412,bidswitch,sovrn,-1,0,1,140063
2017-07-22,1R-RX1-09125-20170127248412,bidswitch,teadstv,-1,0,0,397
2017-07-22,1R-RX1-09125-20170127248412,bidswitch,technorati,-1,0,0,227
2017-07-22,1R-RX1-09125-20170127248412,bidswitch,underdogmedia,-1,0,0,307
2017-07-22,1R-RX1-12027-20170706284008,bidswitch,appnexus,-1,6,7,23786
2017-07-22,1R-RX1-12027-20170706284008,bidswitch,floor6,-1,1,1,27552
2017-07-22,1R-RX1-12027-20170706284008,bidswitch,kiosked,-1,0,0,63
2017-07-22,1R-RX1-12027-20170706284008,bidswitch,openx,-1,131,133,1121709
2017-07-22,1R-RX1-12027-20170706284008,bidswitch,pubmatic,-1,100,100,210449
2017-07-22,1R-RX1-12027-20170706284008,bidswitch,pulse,-1,31,31,24372
2017-07-22,1R-RX1-12027-20170706284008,bidswitch,rmp1r1,-1,0,0,155
2017-07-22,1R-RX1-12027-20170706284008,bidswitch,rubicon,-1,78,80,357166
2017-07-22,1R-RX1-12027-20170706284008,bidswitch,sonobi,-1,5,5,80730
2017-07-22,1R-RX1-12027-20170706284008,bidswitch,sovrn,-1,6,6,98460
2017-07-22,1R-RX1-12027-20170706284008,bidswitch,teadstv,-1,0,0,219
2017-07-22,1R-RX1-12027-20170706284008,bidswitch,underdogmedia,-1,0,0,131
2017-07-22,1R-RX1-12027-20170706284008,bidswitchrmp,rmp1r1,-1,0,0,141
2017-07-22,1R-RX1-12027-20170706284008,bidswitchrmp,rmphb,-1,60,60,100381
2017-07-22,1R-RX1-12027-20170706284008,bidswitchrmp,rmpssp,-1,0,0,24116
2017-07-22,1R-RX1-12027-20170706284008,mediamathtest,appnexus,-1,0,0,24022
2017-07-22,1R-RX1-12027-20170706284008,mediamathtest,floor6,-1,0,0,15515
2017-07-22,1R-RX1-12027-20170706284008,mediamathtest,kiosked,-1,0,0,81
2017-07-22,1R-RX1-12027-20170706284008,mediamathtest,openx,-1,0,0,698273
2017-07-22,1R-RX1-12027-20170706284008,mediamathtest,pubmatic,-1,0,0,198689
2017-07-22,1R-RX1-12027-20170706284008,mediamathtest,pulse,-1,0,0,24265
2017-07-22,1R-RX1-12027-20170706284008,mediamathtest,rmp1r1,-1,0,0,275
2017-07-22,1R-RX1-12027-20170706284008,mediamathtest,rmphb,-1,0,165,92724
2017-07-22,1R-RX1-12027-20170706284008,mediamathtest,rmpssp,-1,0,1,19545
2017-07-22,1R-RX1-12027-20170706284008,mediamathtest,sonobi,-1,0,0,71391
2017-07-22,1R-RX1-12027-20170706284008,mediamathtest,sovrn,-1,0,0,153853
2017-07-22,1R-RX1-12027-20170706284008,mediamathtest,switchconcepts,-1,0,0,3310
2017-07-22,1R-RX1-12027-20170706284008,mediamathtest,teadstv,-1,0,0,219
2017-07-22,1R-RX1-12027-20170706284008,mediamathtest,underdogmedia,-1,0,0,131
2017-07-22,1R-RX1-12027-20170706284008,tradedesk,floor6,-1,0,0,29864
2017-07-22,1R-RX1-12027-20170706284008,tradedesk,mobfox,-1,0,0,788553
2017-07-22,1R-RX1-12027-20170706284008,tradedesk,operamedia,-1,0,0,2701
2017-07-22,1R-RX1-12027-20170706284008,tradedesk,rmp1r1,-1,0,0,414
2017-07-22,1R-RX1-12027-20170706284008,tradedesk,rmphb,-1,0,0,120211
2017-07-22,1R-RX1-12027-20170706284008,tradedesk,rmpssp,-1,0,0,49526
2017-07-22,1R-RX1-12027-20170706284008,tradedesk,rubicon,-1,0,0,433769
2017-07-22,1R-RX1-12027-20170706284008,tradedesk,sonobi,-1,0,0,65654
2017-07-22,1R-RX1-12027-20170706284008,tradedesk,sovrn,-1,0,0,217921
2017-07-22,1R-RX1-12027-20170706284008,tradedesk,switchconcepts,-1,0,0,3155
2017-07-22,1R-RX1-12027-20170706284008,tradedesk,underdogmedia,-1,0,0,128
2017-07-22,1R-RX1-12027-20170706284008,tradedeskex,pubmatic,-1,0,0,24099
2017-07-22,1R-RX1-13678-20170711407663,nuviad,appnexus,-1,0,161,538
2017-07-22,1R-RX1-13678-20170711407663,nuviad,kiosked,-1,0,0,2
2017-07-22,1R-RX1-13678-20170711407663,nuviad,monarchads,-1,0,0,1
2017-07-22,1R-RX1-13678-20170711407663,nuviad,nativeads,-1,0,0,85
2017-07-22,1R-RX1-13678-20170711407663,nuviad,operamedia,-1,0,0,6
2017-07-22,1R-RX1-13678-20170711407663,nuviad,pubmatic,-1,0,29,120
2017-07-22,1R-RX1-13678-20170711407663,nuviad,pulse,-1,0,104,684
2017-07-22,1R-RX1-13678-20170711407663,nuviad,rmp1r1,-1,0,3,788
2017-07-22,1R-RX1-13678-20170711407663,nuviad,rmphb,-1,0,841,6834
2017-07-22,1R-RX1-13678-20170711407663,nuviad,sonobi,-1,0,56,697
2017-07-22,1R-RX1-24973-20170706662924,bidswitch,appnexus,-1,0,0,8
2017-07-22,1R-RX1-24973-20170706662924,bidswitch,pubmatic,-1,0,0,1
2017-07-22,1R-RX1-24973-20170706662924,bidswitch,sovrn,-1,0,0,18
2017-07-22,1R-RX1-24973-20170706662924,mediamathtest,sovrn,-1,0,0,5
2017-07-22,1R-RX1-24973-20170706662924,tradedesk,sovrn,-1,0,0,33
2017-07-22,1R-RX1-30247-20170127851378,bidswitch,appnexus,-1,12,21,91336
2017-07-22,1R-RX1-30247-20170127851378,bidswitch,floor6,-1,0,0,1120
2017-07-22,1R-RX1-30247-20170127851378,bidswitch,kiosked,-1,0,0,1045
2017-07-22,1R-RX1-30247-20170127851378,bidswitch,monarchads,-1,0,0,2
2017-07-22,1R-RX1-30247-20170127851378,bidswitch,openx,-1,170,175,685304
2017-07-22,1R-RX1-30247-20170127851378,bidswitch,pubmatic,-1,63,64,172837
2017-07-22,1R-RX1-30247-20170127851378,bidswitch,pulse,-1,44,67,138147
2017-07-22,1R-RX1-30247-20170127851378,bidswitch,rmp1r1,-1,2,2,23805
2017-07-22,1R-RX1-30247-20170127851378,bidswitch,rubicon,-1,115,122,212319
2017-07-22,1R-RX1-30247-20170127851378,bidswitch,sonobi,-1,17,17,122762
2017-07-22,1R-RX1-30247-20170127851378,bidswitch,sovrn,-1,73,74,381780
2017-07-22,1R-RX1-30247-20170127851378,bidswitch,technorati,-1,0,0,3520
2017-07-22,1R-RX1-30247-20170127851378,bidswitch,underdogmedia,-1,0,0,5554
2017-07-22,1R-RX1-32115-20170623681196,bidswitch,appnexus,-1,0,0,8
2017-07-22,1R-RX1-32115-20170623681196,bidswitch,pubmatic,-1,0,0,1
2017-07-22,1R-RX1-32115-20170623681196,bidswitch,sovrn,-1,0,0,18
2017-07-22,1R-RX1-32115-20170623681196,mediamathtest,sovrn,-1,0,0,5
2017-07-22,1R-RX1-32115-20170623681196,tradedesk,rmp1r1,-1,0,0,27
2017-07-22,1R-RX1-32115-20170623681196,tradedesk,sovrn,-1,0,0,33
2017-07-22,1R-RX1-47436-20170711475615,nuviad,appnexus,-1,0,161,538
2017-07-22,1R-RX1-47436-20170711475615,nuviad,kiosked,-1,0,0,2
2017-07-22,1R-RX1-47436-20170711475615,nuviad,monarchads,-1,0,0,1
2017-07-22,1R-RX1-47436-20170711475615,nuviad,nativeads,-1,0,0,85
2017-07-22,1R-RX1-47436-20170711475615,nuviad,operamedia,-1,0,0,6
2017-07-22,1R-RX1-47436-20170711475615,nuviad,pubmatic,-1,0,29,120
2017-07-22,1R-RX1-47436-20170711475615,nuviad,pulse,-1,0,104,684
2017-07-22,1R-RX1-47436-20170711475615,nuviad,rmp1r1,-1,0,3,788
2017-07-22,1R-RX1-47436-20170711475615,nuviad,rmphb,-1,0,841,6834
2017-07-22,1R-RX1-47436-20170711475615,nuviad,sonobi,-1,0,56,697
2017-07-22,1R-RX1-48721-20170714691888,tradedesk,rmp1r1,-1,0,0,183
2017-07-22,1R-RX1-48721-20170714691888,tradedesk,rmphb,-1,0,65,5987
2017-07-22,1R-RX1-48721-20170714691888,tradedesk,rubicon,-1,0,0,54
2017-07-22,1R-RX1-48721-20170714691888,tradedesk,sonobi,-1,0,164,5156
2017-07-22,1R-RX1-48721-20170714691888,tradedesk,sovrn,-1,0,0,6619
2017-07-22,1R-RX1-48721-20170714691888,tradedesk,underdogmedia,-1,0,100,2403
2017-07-22,1R-RX1-48721-20170714691888,tradedeskex,pubmatic,-1,0,33,2779
2017-07-22,1R-RX1-52990-20170615086651,tradedesk,floor6,-1,0,0,973
2017-07-22,1R-RX1-52990-20170615086651,tradedesk,mobfox,-1,0,0,1321228
2017-07-22,1R-RX1-52990-20170615086651,tradedesk,operamedia,-1,0,0,303494
2017-07-22,1R-RX1-52990-20170615086651,tradedesk,rmp1r1,-1,0,0,2196
2017-07-22,1R-RX1-52990-20170615086651,tradedesk,rmphb,-1,0,65,136911
2017-07-22,1R-RX1-52990-20170615086651,tradedesk,rmpssp,-1,0,0,58109
2017-07-22,1R-RX1-52990-20170615086651,tradedesk,rubicon,-1,0,0,1126287
2017-07-22,1R-RX1-52990-20170615086651,tradedesk,sonobi,-1,0,164,118049
2017-07-22,1R-RX1-52990-20170615086651,tradedesk,sovrn,-1,0,0,125306
2017-07-22,1R-RX1-52990-20170615086651,tradedesk,switchconcepts,-1,0,0,63
2017-07-22,1R-RX1-52990-20170615086651,tradedesk,technorati,-1,0,0,18
2017-07-22,1R-RX1-52990-20170615086651,tradedesk,underdogmedia,-1,0,100,3774
2017-07-22,1R-RX1-52990-20170615086651,tradedeskex,pubmatic,-1,0,33,27656
2017-07-22,1R-RX1-55683-20170314086472,mediamathtest,rmphb,-1,5569,5569,120356
2017-07-22,1R-RX1-55683-20170314086472,mediamathtest,rmpssp,-1,604,604,29272
2017-07-22,1R-RX1-56987-20170711365389,nuviad,appnexus,-1,0,161,540
2017-07-22,1R-RX1-56987-20170711365389,nuviad,kiosked,-1,0,0,2
2017-07-22,1R-RX1-56987-20170711365389,nuviad,monarchads,-1,0,0,1
2017-07-22,1R-RX1-56987-20170711365389,nuviad,nativeads,-1,0,0,85
2017-07-22,1R-RX1-56987-20170711365389,nuviad,operamedia,-1,0,0,6
2017-07-22,1R-RX1-56987-20170711365389,nuviad,pubmatic,-1,0,29,120
2017-07-22,1R-RX1-56987-20170711365389,nuviad,pulse,-1,0,104,686
2017-07-22,1R-RX1-56987-20170711365389,nuviad,rmp1r1,-1,0,3,792
2017-07-22,1R-RX1-56987-20170711365389,nuviad,rmphb,-1,0,889,7338
2017-07-22,1R-RX1-56987-20170711365389,nuviad,sonobi,-1,0,56,697
2017-07-22,1R-RX1-60960-20170420873644,mediamathtest,appnexus,-1,0,0,61331
2017-07-22,1R-RX1-60960-20170420873644,mediamathtest,floor6,-1,0,0,25572
2017-07-22,1R-RX1-60960-20170420873644,mediamathtest,kiosked,-1,0,0,14771
2017-07-22,1R-RX1-60960-20170420873644,mediamathtest,openx,-1,0,0,3535357
2017-07-22,1R-RX1-60960-20170420873644,mediamathtest,pubmatic,-1,0,0,974705
2017-07-22,1R-RX1-60960-20170420873644,mediamathtest,pulse,-1,0,0,260053
2017-07-22,1R-RX1-60960-20170420873644,mediamathtest,rmp1r1,-1,0,0,15266
2017-07-22,1R-RX1-60960-20170420873644,mediamathtest,rmphb,-1,0,5569,416475
2017-07-22,1R-RX1-60960-20170420873644,mediamathtest,rmpssp,-1,0,604,140823
2017-07-22,1R-RX1-60960-20170420873644,mediamathtest,sonobi,-1,0,0,711366
2017-07-22,1R-RX1-60960-20170420873644,mediamathtest,sovrn,-1,0,0,869612
2017-07-22,1R-RX1-60960-20170420873644,mediamathtest,switchconcepts,-1,0,0,32027
2017-07-22,1R-RX1-60960-20170420873644,mediamathtest,teadstv,-1,0,0,2896
2017-07-22,1R-RX1-60960-20170420873644,mediamathtest,technorati,-1,0,0,6399
2017-07-22,1R-RX1-60960-20170420873644,mediamathtest,underdogmedia,-1,0,0,20212
2017-07-22,1R-RX1-62234-20170608324905,turn,rmphb,-1,1,1,39137
2017-07-22,1R-RX1-62234-20170608324905,turn,rmpssp,-1,0,0,15941
2017-07-22,1R-RX1-69109-20170713146865,turn,mobfox,-1,0,0,517
2017-07-22,1R-RX1-69109-20170713146865,turn,nativeads,-1,0,0,46
2017-07-22,1R-RX1-69109-20170713146865,turn,pulse,-1,0,0,72
2017-07-22,1R-RX1-77968-20170208947875,bidswitch,appnexus,-1,9,9,521
2017-07-22,1R-RX1-77968-20170208947875,bidswitch,openx,-1,0,0,39
2017-07-22,1R-RX1-77968-20170208947875,bidswitch,pubmatic,-1,0,1,3298
2017-07-22,1R-RX1-77968-20170208947875,bidswitch,pulse,-1,0,1,91
2017-07-22,1R-RX1-77968-20170208947875,bidswitch,rmp1r1,-1,0,0,68
2017-07-22,1R-RX1-77968-20170208947875,bidswitch,rubicon,-1,0,69,36215
2017-07-22,1R-RX1-77968-20170208947875,bidswitch,sonobi,-1,0,0,5
2017-07-22,1R-RX1-77968-20170208947875,bidswitch,sovrn,-1,1,1,28419
2017-07-22,1R-RX1-77968-20170208947875,bidswitchrmp,rmp1r1,-1,0,0,68
2017-07-22,1R-RX1-82655-20170630661336,mediamathtest,rmp1r1,-1,0,0,14407
2017-07-22,1R-RX1-82655-20170630661336,mediamathtest,rmphb,-1,0,3233,156534
2017-07-22,1R-RX1-82655-20170630661336,mediamathtest,rmpssp,-1,0,198,35966
2017-07-22,1R-RX1-89685-20170711510795,nuviad,appnexus,-1,161,161,540
2017-07-22,1R-RX1-89685-20170711510795,nuviad,kiosked,-1,0,0,2
2017-07-22,1R-RX1-89685-20170711510795,nuviad,monarchads,-1,0,0,1
2017-07-22,1R-RX1-89685-20170711510795,nuviad,nativeads,-1,0,0,85
2017-07-22,1R-RX1-89685-20170711510795,nuviad,operamedia,-1,0,0,6
2017-07-22,1R-RX1-89685-20170711510795,nuviad,pubmatic,-1,29,29,120
2017-07-22,1R-RX1-89685-20170711510795,nuviad,pulse,-1,104,104,686
2017-07-22,1R-RX1-89685-20170711510795,nuviad,rmp1r1,-1,3,3,792
2017-07-22,1R-RX1-89685-20170711510795,nuviad,rmphb,-1,889,889,7338
2017-07-22,1R-RX1-89685-20170711510795,nuviad,sonobi,-1,56,56,697
2017-07-22,1R-RX1-90097-20170712319534,bidswitch,openx,-1,0,0,15
2017-07-22,1R-RX1-90097-20170712319534,bidswitch,pubmatic,-1,0,0,3
2017-07-22,1R-RX1-90097-20170712319534,bidswitch,pulse,-1,0,0,1
2017-07-22,1R-RX1-90097-20170712319534,bidswitch,rubicon,-1,0,0,6
2017-07-22,1R-RX1-90097-20170712319534,bidswitch,sonobi,-1,0,0,4
2017-07-22,1R-RX1-90097-20170712319534,bidswitch,sovrn,-1,0,0,4
2017-07-22,1R-RX1-90097-20170712319534,turn,sonobi,-1,0,0,1
2017-07-22,1R-RX1-90097-20170712319534,turn,sovrn,-1,0,0,1
2017-07-22,1R-RX1-90762-20170714593244,tradedesk,rmphb,-1,65,65,5987
2017-07-22,1R-RX1-90762-20170714593244,tradedesk,rmpssp,-1,0,0,30
2017-07-22,1R-RX1-90762-20170714593244,tradedesk,rubicon,-1,0,0,16
2017-07-22,1R-RX1-90762-20170714593244,tradedesk,sonobi,-1,164,164,5182
2017-07-22,1R-RX1-90762-20170714593244,tradedesk,sovrn,-1,0,0,86
2017-07-22,1R-RX1-90762-20170714593244,tradedesk,underdogmedia,-1,100,100,2403
2017-07-22,1R-RX1-90762-20170714593244,tradedeskex,pubmatic,-1,35,35,2798
2017-07-23,1R-RX1-09125-20170127248412,bidswitch,appnexus,-1,0,0,152760
2017-07-23,1R-RX1-09125-20170127248412,bidswitch,floor6,-1,0,0,1096
2017-07-23,1R-RX1-09125-20170127248412,bidswitch,kiosked,-1,0,0,221
2017-07-23,1R-RX1-09125-20170127248412,bidswitch,openx,-1,2,2,604807
2017-07-23,1R-RX1-09125-20170127248412,bidswitch,pubmatic,-1,0,11,72243
2017-07-23,1R-RX1-09125-20170127248412,bidswitch,pulse,-1,0,0,19230
2017-07-23,1R-RX1-09125-20170127248412,bidswitch,rmp1r1,-1,0,0,891
2017-07-23,1R-RX1-09125-20170127248412,bidswitch,rubicon,-1,0,8,189922
2017-07-23,1R-RX1-09125-20170127248412,bidswitch,sonobi,-1,1,1,105136
2017-07-23,1R-RX1-09125-20170127248412,bidswitch,sovrn,-1,0,0,143893
2017-07-23,1R-RX1-09125-20170127248412,bidswitch,teadstv,-1,0,0,480
2017-07-23,1R-RX1-09125-20170127248412,bidswitch,technorati,-1,0,0,236
2017-07-23,1R-RX1-09125-20170127248412,bidswitch,underdogmedia,-1,0,0,311
2017-07-23,1R-RX1-12027-20170706284008,bidswitch,appnexus,-1,3,4,26840
2017-07-23,1R-RX1-12027-20170706284008,bidswitch,floor6,-1,0,0,30895
2017-07-23,1R-RX1-12027-20170706284008,bidswitch,kiosked,-1,0,0,31
2017-07-23,1R-RX1-12027-20170706284008,bidswitch,openx,-1,82,84,1300336
2017-07-23,1R-RX1-12027-20170706284008,bidswitch,pubmatic,-1,181,181,264636
2017-07-23,1R-RX1-12027-20170706284008,bidswitch,pulse,-1,21,21,28304
2017-07-23,1R-RX1-12027-20170706284008,bidswitch,rmp1r1,-1,0,0,304
2017-07-23,1R-RX1-12027-20170706284008,bidswitch,rubicon,-1,129,136,433005
2017-07-23,1R-RX1-12027-20170706284008,bidswitch,sonobi,-1,2,2,94193
2017-07-23,1R-RX1-12027-20170706284008,bidswitch,sovrn,-1,0,2,100399
2017-07-23,1R-RX1-12027-20170706284008,bidswitch,teadstv,-1,0,0,3
2017-07-23,1R-RX1-12027-20170706284008,bidswitch,technorati,-1,0,0,13
2017-07-23,1R-RX1-12027-20170706284008,bidswitch,underdogmedia,-1,0,0,344
2017-07-23,1R-RX1-12027-20170706284008,bidswitchrmp,rmp1r1,-1,0,0,248
2017-07-23,1R-RX1-12027-20170706284008,bidswitchrmp,rmphb,-1,7,7,87572
2017-07-23,1R-RX1-12027-20170706284008,bidswitchrmp,rmpssp,-1,2,2,27618
2017-07-23,1R-RX1-12027-20170706284008,mediamathtest,appnexus,-1,0,0,25979
2017-07-23,1R-RX1-12027-20170706284008,mediamathtest,floor6,-1,0,0,17444
2017-07-23,1R-RX1-12027-20170706284008,mediamathtest,kiosked,-1,0,0,50
2017-07-23,1R-RX1-12027-20170706284008,mediamathtest,openx,-1,0,0,637070
2017-07-23,1R-RX1-12027-20170706284008,mediamathtest,pubmatic,-1,0,0,254282
2017-07-23,1R-RX1-12027-20170706284008,mediamathtest,pulse,-1,0,0,28283
2017-07-23,1R-RX1-12027-20170706284008,mediamathtest,rmp1r1,-1,0,0,334
2017-07-23,1R-RX1-12027-20170706284008,mediamathtest,rmphb,-1,0,183,86642
2017-07-23,1R-RX1-12027-20170706284008,mediamathtest,rmpssp,-1,0,34,22436
2017-07-23,1R-RX1-12027-20170706284008,mediamathtest,sonobi,-1,0,0,86443
2017-07-23,1R-RX1-12027-20170706284008,mediamathtest,sovrn,-1,0,0,154621
2017-07-23,1R-RX1-12027-20170706284008,mediamathtest,switchconcepts,-1,0,0,4368
2017-07-23,1R-RX1-12027-20170706284008,mediamathtest,teadstv,-1,0,0,3
2017-07-23,1R-RX1-12027-20170706284008,mediamathtest,technorati,-1,0,0,12
2017-07-23,1R-RX1-12027-20170706284008,mediamathtest,underdogmedia,-1,0,0,344
2017-07-23,1R-RX1-12027-20170706284008,tradedesk,floor6,-1,0,0,35064
2017-07-23,1R-RX1-12027-20170706284008,tradedesk,mobfox,-1,0,0,762712
2017-07-23,1R-RX1-12027-20170706284008,tradedesk,operamedia,-1,0,0,57494
2017-07-23,1R-RX1-12027-20170706284008,tradedesk,rmp1r1,-1,0,0,693
2017-07-23,1R-RX1-12027-20170706284008,tradedesk,rmphb,-1,0,0,127712
2017-07-23,1R-RX1-12027-20170706284008,tradedesk,rmpssp,-1,0,0,57529
2017-07-23,1R-RX1-12027-20170706284008,tradedesk,rubicon,-1,0,0,594116
2017-07-23,1R-RX1-12027-20170706284008,tradedesk,sonobi,-1,0,0,71193
2017-07-23,1R-RX1-12027-20170706284008,tradedesk,sovrn,-1,0,0,221416
2017-07-23,1R-RX1-12027-20170706284008,tradedesk,switchconcepts,-1,0,0,4496
2017-07-23,1R-RX1-12027-20170706284008,tradedesk,technorati,-1,0,0,22
2017-07-23,1R-RX1-12027-20170706284008,tradedesk,underdogmedia,-1,0,0,318
2017-07-23,1R-RX1-12027-20170706284008,tradedeskex,pubmatic,-1,0,0,25184
2017-07-23,1R-RX1-13678-20170711407663,nuviad,appnexus,-1,0,179,570
2017-07-23,1R-RX1-13678-20170711407663,nuviad,kiosked,-1,0,0,3
2017-07-23,1R-RX1-13678-20170711407663,nuviad,monarchads,-1,0,0,1
2017-07-23,1R-RX1-13678-20170711407663,nuviad,nativeads,-1,0,0,59
2017-07-23,1R-RX1-13678-20170711407663,nuviad,operamedia,-1,0,0,6
2017-07-23,1R-RX1-13678-20170711407663,nuviad,pubmatic,-1,0,7,53
2017-07-23,1R-RX1-13678-20170711407663,nuviad,pulse,-1,0,32,387
2017-07-23,1R-RX1-13678-20170711407663,nuviad,rmp1r1,-1,0,4,695
2017-07-23,1R-RX1-13678-20170711407663,nuviad,rmphb,-1,0,703,7232
2017-07-23,1R-RX1-13678-20170711407663,nuviad,sonobi,-1,0,50,768
2017-07-23,1R-RX1-13678-20170711407663,nuviad,switchconcepts,-1,0,0,1
2017-07-23,1R-RX1-24973-20170706662924,bidswitch,appnexus,-1,0,0,10
2017-07-23,1R-RX1-24973-20170706662924,bidswitch,pubmatic,-1,0,0,2
2017-07-23,1R-RX1-24973-20170706662924,bidswitch,sovrn,-1,0,0,11
2017-07-23,1R-RX1-24973-20170706662924,mediamathtest,sovrn,-1,0,0,6
2017-07-23,1R-RX1-24973-20170706662924,tradedesk,sovrn,-1,0,0,26
2017-07-23,1R-RX1-30247-20170127851378,bidswitch,appnexus,-1,14,15,90049
2017-07-23,1R-RX1-30247-20170127851378,bidswitch,floor6,-1,0,0,1240
2017-07-23,1R-RX1-30247-20170127851378,bidswitch,kiosked,-1,0,0,826
2017-07-23,1R-RX1-30247-20170127851378,bidswitch,monarchads,-1,0,0,3
2017-07-23,1R-RX1-30247-20170127851378,bidswitch,openx,-1,217,221,683949
2017-07-23,1R-RX1-30247-20170127851378,bidswitch,pubmatic,-1,63,66,174789
2017-07-23,1R-RX1-30247-20170127851378,bidswitch,pulse,-1,27,33,137981
2017-07-23,1R-RX1-30247-20170127851378,bidswitch,rmp1r1,-1,7,7,20940
2017-07-23,1R-RX1-30247-20170127851378,bidswitch,rubicon,-1,134,147,232804
2017-07-23,1R-RX1-30247-20170127851378,bidswitch,sonobi,-1,23,23,120288
2017-07-23,1R-RX1-30247-20170127851378,bidswitch,sovrn,-1,114,115,395827
2017-07-23,1R-RX1-30247-20170127851378,bidswitch,technorati,-1,0,0,3294
2017-07-23,1R-RX1-30247-20170127851378,bidswitch,underdogmedia,-1,0,0,5587
2017-07-23,1R-RX1-32115-20170623681196,bidswitch,appnexus,-1,0,0,10
2017-07-23,1R-RX1-32115-20170623681196,bidswitch,pubmatic,-1,0,0,2
2017-07-23,1R-RX1-32115-20170623681196,bidswitch,sovrn,-1,0,0,11
2017-07-23,1R-RX1-32115-20170623681196,mediamathtest,sovrn,-1,0,0,6
2017-07-23,1R-RX1-32115-20170623681196,tradedesk,rmp1r1,-1,0,0,39
2017-07-23,1R-RX1-32115-20170623681196,tradedesk,sovrn,-1,0,0,26
2017-07-23,1R-RX1-47436-20170711475615,nuviad,appnexus,-1,0,179,570
2017-07-23,1R-RX1-47436-20170711475615,nuviad,kiosked,-1,0,0,3
2017-07-23,1R-RX1-47436-20170711475615,nuviad,monarchads,-1,0,0,1
2017-07-23,1R-RX1-47436-20170711475615,nuviad,nativeads,-1,0,0,59
2017-07-23,1R-RX1-47436-20170711475615,nuviad,operamedia,-1,0,0,6
2017-07-23,1R-RX1-47436-20170711475615,nuviad,pubmatic,-1,0,7,53
2017-07-23,1R-RX1-47436-20170711475615,nuviad,pulse,-1,0,32,387
2017-07-23,1R-RX1-47436-20170711475615,nuviad,rmp1r1,-1,0,4,695
2017-07-23,1R-RX1-47436-20170711475615,nuviad,rmphb,-1,0,703,7232
2017-07-23,1R-RX1-47436-20170711475615,nuviad,sonobi,-1,0,50,768
2017-07-23,1R-RX1-47436-20170711475615,nuviad,switchconcepts,-1,0,0,1
2017-07-23,1R-RX1-48721-20170714691888,tradedesk,operamedia,-1,0,0,1
2017-07-23,1R-RX1-48721-20170714691888,tradedesk,rmp1r1,-1,0,0,345
2017-07-23,1R-RX1-48721-20170714691888,tradedesk,rmphb,-1,0,63,5273
2017-07-23,1R-RX1-48721-20170714691888,tradedesk,rubicon,-1,0,0,72
2017-07-23,1R-RX1-48721-20170714691888,tradedesk,sonobi,-1,0,162,4512
2017-07-23,1R-RX1-48721-20170714691888,tradedesk,sovrn,-1,0,0,6917
2017-07-23,1R-RX1-48721-20170714691888,tradedesk,underdogmedia,-1,0,97,2102
2017-07-23,1R-RX1-48721-20170714691888,tradedeskex,pubmatic,-1,0,29,2530
2017-07-23,1R-RX1-52990-20170615086651,tradedesk,floor6,-1,0,0,1205
2017-07-23,1R-RX1-52990-20170615086651,tradedesk,mobfox,-1,0,0,1327862
2017-07-23,1R-RX1-52990-20170615086651,tradedesk,operamedia,-1,0,0,303589
2017-07-23,1R-RX1-52990-20170615086651,tradedesk,rmp1r1,-1,0,0,2133
2017-07-23,1R-RX1-52990-20170615086651,tradedesk,rmphb,-1,0,63,140231
2017-07-23,1R-RX1-52990-20170615086651,tradedesk,rmpssp,-1,0,0,66409
2017-07-23,1R-RX1-52990-20170615086651,tradedesk,rubicon,-1,0,1,1325243
2017-07-23,1R-RX1-52990-20170615086651,tradedesk,sonobi,-1,0,163,123679
2017-07-23,1R-RX1-52990-20170615086651,tradedesk,sovrn,-1,0,1,132358
2017-07-23,1R-RX1-52990-20170615086651,tradedesk,switchconcepts,-1,0,0,55
2017-07-23,1R-RX1-52990-20170615086651,tradedesk,technorati,-1,0,0,26
2017-07-23,1R-RX1-52990-20170615086651,tradedesk,underdogmedia,-1,0,97,3483
2017-07-23,1R-RX1-52990-20170615086651,tradedeskex,pubmatic,-1,0,29,27527
2017-07-23,1R-RX1-55683-20170314086472,mediamathtest,rmphb,-1,6432,6432,125216
2017-07-23,1R-RX1-55683-20170314086472,mediamathtest,rmpssp,-1,709,709,33332
2017-07-23,1R-RX1-56987-20170711365389,nuviad,appnexus,-1,0,179,572
2017-07-23,1R-RX1-56987-20170711365389,nuviad,kiosked,-1,0,0,3
2017-07-23,1R-RX1-56987-20170711365389,nuviad,monarchads,-1,0,0,1
2017-07-23,1R-RX1-56987-20170711365389,nuviad,nativeads,-1,0,0,59
2017-07-23,1R-RX1-56987-20170711365389,nuviad,operamedia,-1,0,0,6
2017-07-23,1R-RX1-56987-20170711365389,nuviad,pubmatic,-1,0,7,58
2017-07-23,1R-RX1-56987-20170711365389,nuviad,pulse,-1,0,32,388
2017-07-23,1R-RX1-56987-20170711365389,nuviad,rmp1r1,-1,0,4,696
2017-07-23,1R-RX1-56987-20170711365389,nuviad,rmphb,-1,0,735,7730
2017-07-23,1R-RX1-56987-20170711365389,nuviad,sonobi,-1,0,50,769
2017-07-23,1R-RX1-56987-20170711365389,nuviad,switchconcepts,-1,0,0,1
2017-07-23,1R-RX1-60960-20170420873644,mediamathtest,appnexus,-1,0,0,63888
2017-07-23,1R-RX1-60960-20170420873644,mediamathtest,floor6,-1,0,0,29171
2017-07-23,1R-RX1-60960-20170420873644,mediamathtest,kiosked,-1,0,0,12474
2017-07-23,1R-RX1-60960-20170420873644,mediamathtest,openx,-1,0,0,3773741
2017-07-23,1R-RX1-60960-20170420873644,mediamathtest,pubmatic,-1,0,0,1092158
2017-07-23,1R-RX1-60960-20170420873644,mediamathtest,pulse,-1,0,0,270280
2017-07-23,1R-RX1-60960-20170420873644,mediamathtest,rmp1r1,-1,0,0,15243
2017-07-23,1R-RX1-60960-20170420873644,mediamathtest,rmphb,-1,0,6432,433094
2017-07-23,1R-RX1-60960-20170420873644,mediamathtest,rmpssp,-1,0,709,158132
2017-07-23,1R-RX1-60960-20170420873644,mediamathtest,sonobi,-1,0,0,739345
2017-07-23,1R-RX1-60960-20170420873644,mediamathtest,sovrn,-1,0,0,897879
2017-07-23,1R-RX1-60960-20170420873644,mediamathtest,switchconcepts,-1,0,0,35483
2017-07-23,1R-RX1-60960-20170420873644,mediamathtest,teadstv,-1,0,0,3372
2017-07-23,1R-RX1-60960-20170420873644,mediamathtest,technorati,-1,0,0,5769
2017-07-23,1R-RX1-60960-20170420873644,mediamathtest,underdogmedia,-1,0,0,19011
2017-07-23,1R-RX1-62234-20170608324905,turn,rmphb,-1,3,3,40838
2017-07-23,1R-RX1-62234-20170608324905,turn,rmpssp,-1,0,0,15930
2017-07-23,1R-RX1-69109-20170713146865,turn,mobfox,-1,0,0,463
2017-07-23,1R-RX1-69109-20170713146865,turn,nativeads,-1,0,0,55
2017-07-23,1R-RX1-69109-20170713146865,turn,pulse,-1,0,0,27
2017-07-23,1R-RX1-77968-20170208947875,bidswitch,appnexus,-1,1,1,526
2017-07-23,1R-RX1-77968-20170208947875,bidswitch,openx,-1,0,0,35
2017-07-23,1R-RX1-77968-20170208947875,bidswitch,pubmatic,-1,0,0,3309
2017-07-23,1R-RX1-77968-20170208947875,bidswitch,pulse,-1,0,0,110
2017-07-23,1R-RX1-77968-20170208947875,bidswitch,rmp1r1,-1,0,0,111
2017-07-23,1R-RX1-77968-20170208947875,bidswitch,rubicon,-1,0,74,35993
2017-07-23,1R-RX1-77968-20170208947875,bidswitch,sonobi,-1,0,0,11
2017-07-23,1R-RX1-77968-20170208947875,bidswitch,sovrn,-1,1,1,27525
2017-07-23,1R-RX1-77968-20170208947875,bidswitchrmp,rmp1r1,-1,0,0,111
2017-07-23,1R-RX1-82655-20170630661336,mediamathtest,rmp1r1,-1,0,0,14234
2017-07-23,1R-RX1-82655-20170630661336,mediamathtest,rmphb,-1,0,3928,162863
2017-07-23,1R-RX1-82655-20170630661336,mediamathtest,rmpssp,-1,0,262,36888
2017-07-23,1R-RX1-89685-20170711510795,nuviad,appnexus,-1,179,179,572
2017-07-23,1R-RX1-89685-20170711510795,nuviad,kiosked,-1,0,0,3
2017-07-23,1R-RX1-89685-20170711510795,nuviad,monarchads,-1,0,0,1
2017-07-23,1R-RX1-89685-20170711510795,nuviad,nativeads,-1,0,0,59
2017-07-23,1R-RX1-89685-20170711510795,nuviad,operamedia,-1,0,0,6
2017-07-23,1R-RX1-89685-20170711510795,nuviad,pubmatic,-1,7,7,58
2017-07-23,1R-RX1-89685-20170711510795,nuviad,pulse,-1,32,32,388
2017-07-23,1R-RX1-89685-20170711510795,nuviad,rmp1r1,-1,4,4,696
2017-07-23,1R-RX1-89685-20170711510795,nuviad,rmphb,-1,735,735,7730
2017-07-23,1R-RX1-89685-20170711510795,nuviad,sonobi,-1,50,50,769
2017-07-23,1R-RX1-89685-20170711510795,nuviad,switchconcepts,-1,0,0,1
2017-07-23,1R-RX1-90097-20170712319534,bidswitch,openx,-1,0,0,22
2017-07-23,1R-RX1-90097-20170712319534,bidswitch,pubmatic,-1,0,0,3
2017-07-23,1R-RX1-90097-20170712319534,bidswitch,pulse,-1,0,0,1
2017-07-23,1R-RX1-90097-20170712319534,bidswitch,rubicon,-1,0,0,7
2017-07-23,1R-RX1-90097-20170712319534,bidswitch,sonobi,-1,0,0,6
2017-07-23,1R-RX1-90097-20170712319534,bidswitch,sovrn,-1,0,0,4
2017-07-23,1R-RX1-90097-20170712319534,turn,nativeads,-1,0,0,1
2017-07-23,1R-RX1-90097-20170712319534,turn,pubmatic,-1,0,0,3
2017-07-23,1R-RX1-90097-20170712319534,turn,pulse,-1,0,0,1
2017-07-23,1R-RX1-90097-20170712319534,turn,rmphb,-1,0,0,1
2017-07-23,1R-RX1-90097-20170712319534,turn,sonobi,-1,0,0,3
2017-07-23,1R-RX1-90097-20170712319534,turn,sovrn,-1,0,0,2
2017-07-23,1R-RX1-90097-20170712319534,turn,switchconcepts,-1,0,0,1
2017-07-23,1R-RX1-90762-20170714593244,tradedesk,rmphb,-1,63,63,5273
2017-07-23,1R-RX1-90762-20170714593244,tradedesk,rmpssp,-1,0,0,33
2017-07-23,1R-RX1-90762-20170714593244,tradedesk,rubicon,-1,1,1,25
2017-07-23,1R-RX1-90762-20170714593244,tradedesk,sonobi,-1,163,163,4550
2017-07-23,1R-RX1-90762-20170714593244,tradedesk,sovrn,-1,1,1,61
2017-07-23,1R-RX1-90762-20170714593244,tradedesk,underdogmedia,-1,97,97,2102
2017-07-23,1R-RX1-90762-20170714593244,tradedeskex,pubmatic,-1,49,49,2626
2017-07-24,1R-RX1-09125-20170127248412,bidswitch,appnexus,-1,0,0,132580
2017-07-24,1R-RX1-09125-20170127248412,bidswitch,floor6,-1,0,0,1172
2017-07-24,1R-RX1-09125-20170127248412,bidswitch,kiosked,-1,0,0,238
2017-07-24,1R-RX1-09125-20170127248412,bidswitch,monarchads,-1,0,0,1
2017-07-24,1R-RX1-09125-20170127248412,bidswitch,openx,-1,0,1,560253
2017-07-24,1R-RX1-09125-20170127248412,bidswitch,pubmatic,-1,0,1,69694
2017-07-24,1R-RX1-09125-20170127248412,bidswitch,pulse,-1,0,0,17405
2017-07-24,1R-RX1-09125-20170127248412,bidswitch,rmp1r1,-1,0,0,1047
2017-07-24,1R-RX1-09125-20170127248412,bidswitch,rubicon,-1,0,5,149249
2017-07-24,1R-RX1-09125-20170127248412,bidswitch,sonobi,-1,0,0,93575
2017-07-24,1R-RX1-09125-20170127248412,bidswitch,sovrn,-1,0,0,187092
2017-07-24,1R-RX1-09125-20170127248412,bidswitch,teadstv,-1,0,0,443
2017-07-24,1R-RX1-09125-20170127248412,bidswitch,technorati,-1,0,0,236
2017-07-24,1R-RX1-09125-20170127248412,bidswitch,underdogmedia,-1,0,0,327
2017-07-24,1R-RX1-12027-20170706284008,bidswitch,appnexus,-1,1,1,29455
2017-07-24,1R-RX1-12027-20170706284008,bidswitch,floor6,-1,1,1,31767
2017-07-24,1R-RX1-12027-20170706284008,bidswitch,kiosked,-1,0,0,31
2017-07-24,1R-RX1-12027-20170706284008,bidswitch,openx,-1,73,73,1365822
2017-07-24,1R-RX1-12027-20170706284008,bidswitch,pubmatic,-1,73,73,215340
2017-07-24,1R-RX1-12027-20170706284008,bidswitch,pulse,-1,26,27,31330
2017-07-24,1R-RX1-12027-20170706284008,bidswitch,rmp1r1,-1,0,0,94
2017-07-24,1R-RX1-12027-20170706284008,bidswitch,rubicon,-1,104,115,405753
2017-07-24,1R-RX1-12027-20170706284008,bidswitch,sonobi,-1,1,1,90683
2017-07-24,1R-RX1-12027-20170706284008,bidswitch,sovrn,-1,1,2,121302
2017-07-24,1R-RX1-12027-20170706284008,bidswitch,teadstv,-1,0,0,8
2017-07-24,1R-RX1-12027-20170706284008,bidswitch,underdogmedia,-1,0,0,615
2017-07-24,1R-RX1-12027-20170706284008,bidswitchrmp,rmp1r1,-1,0,0,77
2017-07-24,1R-RX1-12027-20170706284008,bidswitchrmp,rmphb,-1,0,0,71743
2017-07-24,1R-RX1-12027-20170706284008,bidswitchrmp,rmpssp,-1,0,0,29956
2017-07-24,1R-RX1-12027-20170706284008,mediamathtest,appnexus,-1,0,0,26336
2017-07-24,1R-RX1-12027-20170706284008,mediamathtest,floor6,-1,0,0,22239
2017-07-24,1R-RX1-12027-20170706284008,mediamathtest,kiosked,-1,0,0,52
2017-07-24,1R-RX1-12027-20170706284008,mediamathtest,openx,-1,0,0,776572
2017-07-24,1R-RX1-12027-20170706284008,mediamathtest,pubmatic,-1,0,0,237423
2017-07-24,1R-RX1-12027-20170706284008,mediamathtest,pulse,-1,0,0,31615
2017-07-24,1R-RX1-12027-20170706284008,mediamathtest,rmp1r1,-1,0,0,99
2017-07-24,1R-RX1-12027-20170706284008,mediamathtest,rmphb,-1,0,129,77680
2017-07-24,1R-RX1-12027-20170706284008,mediamathtest,rmpssp,-1,0,30,23118
2017-07-24,1R-RX1-12027-20170706284008,mediamathtest,sonobi,-1,0,0,82881
2017-07-24,1R-RX1-12027-20170706284008,mediamathtest,sovrn,-1,0,0,181412
2017-07-24,1R-RX1-12027-20170706284008,mediamathtest,switchconcepts,-1,0,0,3217
2017-07-24,1R-RX1-12027-20170706284008,mediamathtest,teadstv,-1,0,0,8
2017-07-24,1R-RX1-12027-20170706284008,mediamathtest,underdogmedia,-1,0,0,614
2017-07-24,1R-RX1-12027-20170706284008,tradedesk,floor6,-1,0,0,37323
2017-07-24,1R-RX1-12027-20170706284008,tradedesk,mobfox,-1,0,0,944197
2017-07-24,1R-RX1-12027-20170706284008,tradedesk,operamedia,-1,0,0,51926
2017-07-24,1R-RX1-12027-20170706284008,tradedesk,rmp1r1,-1,0,0,253
2017-07-24,1R-RX1-12027-20170706284008,tradedesk,rmphb,-1,0,0,129375
2017-07-24,1R-RX1-12027-20170706284008,tradedesk,rmpssp,-1,0,0,58923
2017-07-24,1R-RX1-12027-20170706284008,tradedesk,rubicon,-1,0,0,602450
2017-07-24,1R-RX1-12027-20170706284008,tradedesk,sonobi,-1,0,0,64969
2017-07-24,1R-RX1-12027-20170706284008,tradedesk,sovrn,-1,0,0,272046
2017-07-24,1R-RX1-12027-20170706284008,tradedesk,switchconcepts,-1,0,0,2967
2017-07-24,1R-RX1-12027-20170706284008,tradedesk,technorati,-1,0,0,1
2017-07-24,1R-RX1-12027-20170706284008,tradedesk,underdogmedia,-1,0,0,540
2017-07-24,1R-RX1-12027-20170706284008,tradedeskex,pubmatic,-1,0,0,23174
2017-07-24,1R-RX1-13678-20170711407663,nuviad,appnexus,-1,0,255,748
2017-07-24,1R-RX1-13678-20170711407663,nuviad,kiosked,-1,0,1,5
2017-07-24,1R-RX1-13678-20170711407663,nuviad,monarchads,-1,0,0,3
2017-07-24,1R-RX1-13678-20170711407663,nuviad,nativeads,-1,0,0,43
2017-07-24,1R-RX1-13678-20170711407663,nuviad,pubmatic,-1,0,4,82
2017-07-24,1R-RX1-13678-20170711407663,nuviad,pulse,-1,0,16,489
2017-07-24,1R-RX1-13678-20170711407663,nuviad,rmp1r1,-1,0,8,2331
2017-07-24,1R-RX1-13678-20170711407663,nuviad,rmphb,-1,0,852,10321
2017-07-24,1R-RX1-13678-20170711407663,nuviad,sonobi,-1,0,124,1302
2017-07-24,1R-RX1-24973-20170706662924,bidswitch,appnexus,-1,0,0,8
2017-07-24,1R-RX1-24973-20170706662924,bidswitch,pubmatic,-1,0,0,3
2017-07-24,1R-RX1-24973-20170706662924,bidswitch,sovrn,-1,0,0,8
2017-07-24,1R-RX1-24973-20170706662924,mediamathtest,sovrn,-1,0,0,5
2017-07-24,1R-RX1-24973-20170706662924,tradedesk,sovrn,-1,0,0,17
2017-07-24,1R-RX1-30247-20170127851378,bidswitch,appnexus,-1,38,42,112931
2017-07-24,1R-RX1-30247-20170127851378,bidswitch,floor6,-1,0,0,1576
2017-07-24,1R-RX1-30247-20170127851378,bidswitch,kiosked,-1,0,0,1230
2017-07-24,1R-RX1-30247-20170127851378,bidswitch,monarchads,-1,0,0,3
2017-07-24,1R-RX1-30247-20170127851378,bidswitch,openx,-1,460,464,1100534
2017-07-24,1R-RX1-30247-20170127851378,bidswitch,pubmatic,-1,213,214,254033
2017-07-24,1R-RX1-30247-20170127851378,bidswitch,pulse,-1,88,97,129005
2017-07-24,1R-RX1-30247-20170127851378,bidswitch,rmp1r1,-1,10,10,33773
2017-07-24,1R-RX1-30247-20170127851378,bidswitch,rmpnet1,-1,0,0,1
2017-07-24,1R-RX1-30247-20170127851378,bidswitch,rubicon,-1,231,245,283317
2017-07-24,1R-RX1-30247-20170127851378,bidswitch,sonobi,-1,64,64,176932
2017-07-24,1R-RX1-30247-20170127851378,bidswitch,sovrn,-1,179,179,535209
2017-07-24,1R-RX1-30247-20170127851378,bidswitch,technorati,-1,2,2,4176
2017-07-24,1R-RX1-30247-20170127851378,bidswitch,underdogmedia,-1,0,0,5991
2017-07-24,1R-RX1-32115-20170623681196,bidswitch,appnexus,-1,0,0,8
2017-07-24,1R-RX1-32115-20170623681196,bidswitch,pubmatic,-1,0,0,3
2017-07-24,1R-RX1-32115-20170623681196,bidswitch,sovrn,-1,0,0,8
2017-07-24,1R-RX1-32115-20170623681196,mediamathtest,sovrn,-1,0,0,5
2017-07-24,1R-RX1-32115-20170623681196,tradedesk,rmp1r1,-1,0,0,35
2017-07-24,1R-RX1-32115-20170623681196,tradedesk,sovrn,-1,0,0,17
2017-07-24,1R-RX1-47436-20170711475615,nuviad,appnexus,-1,0,255,748
2017-07-24,1R-RX1-47436-20170711475615,nuviad,kiosked,-1,0,1,5
2017-07-24,1R-RX1-47436-20170711475615,nuviad,monarchads,-1,0,0,3
2017-07-24,1R-RX1-47436-20170711475615,nuviad,nativeads,-1,0,0,43
2017-07-24,1R-RX1-47436-20170711475615,nuviad,pubmatic,-1,0,4,82
2017-07-24,1R-RX1-47436-20170711475615,nuviad,pulse,-1,0,16,489
2017-07-24,1R-RX1-47436-20170711475615,nuviad,rmp1r1,-1,0,8,2331
2017-07-24,1R-RX1-47436-20170711475615,nuviad,rmphb,-1,0,852,10321
2017-07-24,1R-RX1-47436-20170711475615,nuviad,sonobi,-1,0,124,1302
2017-07-24,1R-RX1-48721-20170714691888,tradedesk,rmp1r1,-1,0,0,140
2017-07-24,1R-RX1-48721-20170714691888,tradedesk,rmphb,-1,0,67,8720
2017-07-24,1R-RX1-48721-20170714691888,tradedesk,rubicon,-1,0,0,280
2017-07-24,1R-RX1-48721-20170714691888,tradedesk,sonobi,-1,0,334,7570
2017-07-24,1R-RX1-48721-20170714691888,tradedesk,sovrn,-1,0,0,10356
2017-07-24,1R-RX1-48721-20170714691888,tradedesk,underdogmedia,-1,0,50,3375
2017-07-24,1R-RX1-48721-20170714691888,tradedeskex,pubmatic,-1,0,11,3427
2017-07-24,1R-RX1-52990-20170615086651,tradedesk,floor6,-1,0,0,1438
2017-07-24,1R-RX1-52990-20170615086651,tradedesk,mobfox,-1,0,0,1407153
2017-07-24,1R-RX1-52990-20170615086651,tradedesk,operamedia,-1,0,0,295959
2017-07-24,1R-RX1-52990-20170615086651,tradedesk,rmp1r1,-1,0,0,2601
2017-07-24,1R-RX1-52990-20170615086651,tradedesk,rmphb,-1,0,67,135137
2017-07-24,1R-RX1-52990-20170615086651,tradedesk,rmpssp,-1,0,0,65989
2017-07-24,1R-RX1-52990-20170615086651,tradedesk,rubicon,-1,0,2,1241138
2017-07-24,1R-RX1-52990-20170615086651,tradedesk,sonobi,-1,0,335,121976
2017-07-24,1R-RX1-52990-20170615086651,tradedesk,sovrn,-1,0,2,191975
2017-07-24,1R-RX1-52990-20170615086651,tradedesk,switchconcepts,-1,0,0,127
2017-07-24,1R-RX1-52990-20170615086651,tradedesk,technorati,-1,0,0,50
2017-07-24,1R-RX1-52990-20170615086651,tradedesk,underdogmedia,-1,0,50,5117
2017-07-24,1R-RX1-52990-20170615086651,tradedeskex,pubmatic,-1,0,11,35174
2017-07-24,1R-RX1-55683-20170314086472,mediamathtest,rmphb,-1,4968,4968,124071
2017-07-24,1R-RX1-55683-20170314086472,mediamathtest,rmpssp,-1,552,552,31249
2017-07-24,1R-RX1-56987-20170711365389,nuviad,appnexus,-1,0,255,748
2017-07-24,1R-RX1-56987-20170711365389,nuviad,kiosked,-1,0,1,5
2017-07-24,1R-RX1-56987-20170711365389,nuviad,monarchads,-1,0,0,3
2017-07-24,1R-RX1-56987-20170711365389,nuviad,nativeads,-1,0,0,44
2017-07-24,1R-RX1-56987-20170711365389,nuviad,pubmatic,-1,0,4,85
2017-07-24,1R-RX1-56987-20170711365389,nuviad,pulse,-1,0,16,490
2017-07-24,1R-RX1-56987-20170711365389,nuviad,rmp1r1,-1,0,8,2333
2017-07-24,1R-RX1-56987-20170711365389,nuviad,rmphb,-1,0,856,10929
2017-07-24,1R-RX1-56987-20170711365389,nuviad,sonobi,-1,0,124,1303
2017-07-24,1R-RX1-60960-20170420873644,mediamathtest,appnexus,-1,0,0,74830
2017-07-24,1R-RX1-60960-20170420873644,mediamathtest,floor6,-1,0,0,32479
2017-07-24,1R-RX1-60960-20170420873644,mediamathtest,kiosked,-1,0,0,10826
2017-07-24,1R-RX1-60960-20170420873644,mediamathtest,openx,-1,0,0,5039818
2017-07-24,1R-RX1-60960-20170420873644,mediamathtest,pubmatic,-1,0,0,1277621
2017-07-24,1R-RX1-60960-20170420873644,mediamathtest,pulse,-1,0,0,301831
2017-07-24,1R-RX1-60960-20170420873644,mediamathtest,rmp1r1,-1,0,0,19415
2017-07-24,1R-RX1-60960-20170420873644,mediamathtest,rmpak1,-1,0,0,6
2017-07-24,1R-RX1-60960-20170420873644,mediamathtest,rmphb,-1,0,4968,472531
2017-07-24,1R-RX1-60960-20170420873644,mediamathtest,rmpssp,-1,0,552,151844
2017-07-24,1R-RX1-60960-20170420873644,mediamathtest,sonobi,-1,0,0,868850
2017-07-24,1R-RX1-60960-20170420873644,mediamathtest,sovrn,-1,0,0,1235554
2017-07-24,1R-RX1-60960-20170420873644,mediamathtest,switchconcepts,-1,0,0,36846
2017-07-24,1R-RX1-60960-20170420873644,mediamathtest,teadstv,-1,0,0,3560
2017-07-24,1R-RX1-60960-20170420873644,mediamathtest,technorati,-1,0,0,7983
2017-07-24,1R-RX1-60960-20170420873644,mediamathtest,underdogmedia,-1,0,0,27087
2017-07-24,1R-RX1-62234-20170608324905,turn,rmphb,-1,6,6,52445
2017-07-24,1R-RX1-62234-20170608324905,turn,rmpssp,-1,0,0,21208
2017-07-24,1R-RX1-69109-20170713146865,turn,mobfox,-1,0,0,507
2017-07-24,1R-RX1-69109-20170713146865,turn,nativeads,-1,0,0,48
2017-07-24,1R-RX1-69109-20170713146865,turn,pubmatic,-1,0,0,1
2017-07-24,1R-RX1-69109-20170713146865,turn,rmp1r1,-1,0,0,6
2017-07-24,1R-RX1-77968-20170208947875,bidswitch,appnexus,-1,4,4,631
2017-07-24,1R-RX1-77968-20170208947875,bidswitch,openx,-1,0,0,33
2017-07-24,1R-RX1-77968-20170208947875,bidswitch,pubmatic,-1,0,1,3628
2017-07-24,1R-RX1-77968-20170208947875,bidswitch,pulse,-1,0,0,391
2017-07-24,1R-RX1-77968-20170208947875,bidswitch,rmp1r1,-1,0,0,306
2017-07-24,1R-RX1-77968-20170208947875,bidswitch,rubicon,-1,0,84,49916
2017-07-24,1R-RX1-77968-20170208947875,bidswitch,sonobi,-1,0,0,18
2017-07-24,1R-RX1-77968-20170208947875,bidswitch,sovrn,-1,0,0,32797
2017-07-24,1R-RX1-77968-20170208947875,bidswitchrmp,rmp1r1,-1,0,0,320
2017-07-24,1R-RX1-82655-20170630661336,mediamathtest,rmp1r1,-1,0,0,18286
2017-07-24,1R-RX1-82655-20170630661336,mediamathtest,rmpak1,-1,0,0,5
2017-07-24,1R-RX1-82655-20170630661336,mediamathtest,rmphb,-1,0,3138,199725
2017-07-24,1R-RX1-82655-20170630661336,mediamathtest,rmpssp,-1,0,247,48788
2017-07-24,1R-RX1-89685-20170711510795,nuviad,appnexus,-1,255,255,748
2017-07-24,1R-RX1-89685-20170711510795,nuviad,kiosked,-1,1,1,5
2017-07-24,1R-RX1-89685-20170711510795,nuviad,monarchads,-1,0,0,3
2017-07-24,1R-RX1-89685-20170711510795,nuviad,nativeads,-1,0,0,44
2017-07-24,1R-RX1-89685-20170711510795,nuviad,pubmatic,-1,4,4,85
2017-07-24,1R-RX1-89685-20170711510795,nuviad,pulse,-1,16,16,490
2017-07-24,1R-RX1-89685-20170711510795,nuviad,rmp1r1,-1,8,8,2333
2017-07-24,1R-RX1-89685-20170711510795,nuviad,rmphb,-1,856,856,10929
2017-07-24,1R-RX1-89685-20170711510795,nuviad,sonobi,-1,124,124,1303
2017-07-24,1R-RX1-90097-20170712319534,bidswitch,appnexus,-1,0,0,2
2017-07-24,1R-RX1-90097-20170712319534,bidswitch,floor6,-1,0,0,1
2017-07-24,1R-RX1-90097-20170712319534,bidswitch,openx,-1,0,0,38
2017-07-24,1R-RX1-90097-20170712319534,bidswitch,pubmatic,-1,0,0,2
2017-07-24,1R-RX1-90097-20170712319534,bidswitch,pulse,-1,0,0,4
2017-07-24,1R-RX1-90097-20170712319534,bidswitch,rubicon,-1,0,0,7
2017-07-24,1R-RX1-90097-20170712319534,bidswitch,sonobi,-1,0,0,10
2017-07-24,1R-RX1-90097-20170712319534,bidswitch,sovrn,-1,0,0,6
2017-07-24,1R-RX1-90097-20170712319534,turn,rmphb,-1,0,0,3
2017-07-24,1R-RX1-90097-20170712319534,turn,sonobi,-1,0,0,3
2017-07-24,1R-RX1-90097-20170712319534,turn,sovrn,-1,0,0,4
2017-07-24,1R-RX1-90762-20170714593244,tradedesk,rmp1r1,-1,0,0,1
2017-07-24,1R-RX1-90762-20170714593244,tradedesk,rmphb,-1,67,67,8720
2017-07-24,1R-RX1-90762-20170714593244,tradedesk,rmpssp,-1,0,0,51
2017-07-24,1R-RX1-90762-20170714593244,tradedesk,rubicon,-1,2,2,44
2017-07-24,1R-RX1-90762-20170714593244,tradedesk,sonobi,-1,335,335,7641
2017-07-24,1R-RX1-90762-20170714593244,tradedesk,sovrn,-1,2,2,132
2017-07-24,1R-RX1-90762-20170714593244,tradedesk,underdogmedia,-1,50,50,3375
2017-07-24,1R-RX1-90762-20170714593244,tradedeskex,pubmatic,-1,14,14,3767
2017-07-25,1R-RX1-09125-20170127248412,bidswitch,appnexus,-1,0,0,130771
2017-07-25,1R-RX1-09125-20170127248412,bidswitch,floor6,-1,0,0,1279
2017-07-25,1R-RX1-09125-20170127248412,bidswitch,kiosked,-1,0,0,161
2017-07-25,1R-RX1-09125-20170127248412,bidswitch,monarchads,-1,0,0,2
2017-07-25,1R-RX1-09125-20170127248412,bidswitch,openx,-1,0,0,571188
2017-07-25,1R-RX1-09125-20170127248412,bidswitch,pubmatic,-1,0,0,64315
2017-07-25,1R-RX1-09125-20170127248412,bidswitch,pulse,-1,0,0,16284
2017-07-25,1R-RX1-09125-20170127248412,bidswitch,rmp1r1,-1,0,0,317
2017-07-25,1R-RX1-09125-20170127248412,bidswitch,rubicon,-1,1,4,150216
2017-07-25,1R-RX1-09125-20170127248412,bidswitch,sonobi,-1,0,0,84622
2017-07-25,1R-RX1-09125-20170127248412,bidswitch,sovrn,-1,0,1,283517
2017-07-25,1R-RX1-09125-20170127248412,bidswitch,teadstv,-1,0,0,535
2017-07-25,1R-RX1-09125-20170127248412,bidswitch,technorati,-1,0,0,246
2017-07-25,1R-RX1-09125-20170127248412,bidswitch,underdogmedia,-1,0,0,268
2017-07-25,1R-RX1-12027-20170706284008,bidswitch,appnexus,-1,5,5,31842
2017-07-25,1R-RX1-12027-20170706284008,bidswitch,floor6,-1,0,0,33213
2017-07-25,1R-RX1-12027-20170706284008,bidswitch,kiosked,-1,0,0,11
2017-07-25,1R-RX1-12027-20170706284008,bidswitch,openx,-1,112,114,1411756
2017-07-25,1R-RX1-12027-20170706284008,bidswitch,pubmatic,-1,80,80,211589
2017-07-25,1R-RX1-12027-20170706284008,bidswitch,pulse,-1,16,16,24273
2017-07-25,1R-RX1-12027-20170706284008,bidswitch,rmp1r1,-1,0,0,70
2017-07-25,1R-RX1-12027-20170706284008,bidswitch,rubicon,-1,122,130,458841
2017-07-25,1R-RX1-12027-20170706284008,bidswitch,sonobi,-1,1,1,89353
2017-07-25,1R-RX1-12027-20170706284008,bidswitch,sovrn,-1,2,2,146994
2017-07-25,1R-RX1-12027-20170706284008,bidswitch,teadstv,-1,0,0,8
2017-07-25,1R-RX1-12027-20170706284008,bidswitch,technorati,-1,0,0,71
2017-07-25,1R-RX1-12027-20170706284008,bidswitch,underdogmedia,-1,0,0,634
2017-07-25,1R-RX1-12027-20170706284008,bidswitchrmp,rmp1r1,-1,0,0,52
2017-07-25,1R-RX1-12027-20170706284008,bidswitchrmp,rmphb,-1,0,0,97343
2017-07-25,1R-RX1-12027-20170706284008,bidswitchrmp,rmpssp,-1,0,0,28925
2017-07-25,1R-RX1-12027-20170706284008,mediamathtest,appnexus,-1,0,0,22363
2017-07-25,1R-RX1-12027-20170706284008,mediamathtest,floor6,-1,0,0,25350
2017-07-25,1R-RX1-12027-20170706284008,mediamathtest,kiosked,-1,0,0,38
2017-07-25,1R-RX1-12027-20170706284008,mediamathtest,openx,-1,0,0,31353
2017-07-25,1R-RX1-12027-20170706284008,mediamathtest,pubmatic,-1,0,0,256625
2017-07-25,1R-RX1-12027-20170706284008,mediamathtest,pulse,-1,0,0,25012
2017-07-25,1R-RX1-12027-20170706284008,mediamathtest,rmp1r1,-1,0,0,79
2017-07-25,1R-RX1-12027-20170706284008,mediamathtest,rmphb,-1,0,539,104574
2017-07-25,1R-RX1-12027-20170706284008,mediamathtest,rmpssp,-1,0,4,22822
2017-07-25,1R-RX1-12027-20170706284008,mediamathtest,rubicon,-1,0,0,185387
2017-07-25,1R-RX1-12027-20170706284008,mediamathtest,sonobi,-1,0,0,83847
2017-07-25,1R-RX1-12027-20170706284008,mediamathtest,sovrn,-1,0,0,210697
2017-07-25,1R-RX1-12027-20170706284008,mediamathtest,switchconcepts,-1,0,0,4384
2017-07-25,1R-RX1-12027-20170706284008,mediamathtest,teadstv,-1,0,0,8
2017-07-25,1R-RX1-12027-20170706284008,mediamathtest,technorati,-1,0,0,85
2017-07-25,1R-RX1-12027-20170706284008,mediamathtest,underdogmedia,-1,0,0,637
2017-07-25,1R-RX1-12027-20170706284008,tradedesk,floor6,-1,0,0,41152
2017-07-25,1R-RX1-12027-20170706284008,tradedesk,mobfox,-1,0,0,980710
2017-07-25,1R-RX1-12027-20170706284008,tradedesk,operamedia,-1,0,0,4426
2017-07-25,1R-RX1-12027-20170706284008,tradedesk,rmp1r1,-1,0,0,719
2017-07-25,1R-RX1-12027-20170706284008,tradedesk,rmphb,-1,0,0,170858
2017-07-25,1R-RX1-12027-20170706284008,tradedesk,rmpssp,-1,0,0,51780
2017-07-25,1R-RX1-12027-20170706284008,tradedesk,rubicon,-1,0,0,555544
2017-07-25,1R-RX1-12027-20170706284008,tradedesk,sonobi,-1,0,0,55046
2017-07-25,1R-RX1-12027-20170706284008,tradedesk,sovrn,-1,0,0,334961
2017-07-25,1R-RX1-12027-20170706284008,tradedesk,switchconcepts,-1,0,0,4597
2017-07-25,1R-RX1-12027-20170706284008,tradedesk,technorati,-1,0,0,105
2017-07-25,1R-RX1-12027-20170706284008,tradedesk,underdogmedia,-1,0,0,587
2017-07-25,1R-RX1-12027-20170706284008,tradedeskex,pubmatic,-1,0,0,21817
2017-07-25,1R-RX1-13678-20170711407663,nuviad,appnexus,-1,0,100,832
2017-07-25,1R-RX1-13678-20170711407663,nuviad,kiosked,-1,0,0,2
2017-07-25,1R-RX1-13678-20170711407663,nuviad,monarchads,-1,0,0,1
2017-07-25,1R-RX1-13678-20170711407663,nuviad,nativeads,-1,0,0,41
2017-07-25,1R-RX1-13678-20170711407663,nuviad,pubmatic,-1,0,2,91
2017-07-25,1R-RX1-13678-20170711407663,nuviad,pulse,-1,0,12,886
2017-07-25,1R-RX1-13678-20170711407663,nuviad,rmp1r1,-1,0,4,1668
2017-07-25,1R-RX1-13678-20170711407663,nuviad,rmphb,-1,0,377,7954
2017-07-25,1R-RX1-13678-20170711407663,nuviad,sonobi,-1,0,66,1463
2017-07-25,1R-RX1-13678-20170711407663,nuviad,switchconcepts,-1,0,0,1
2017-07-25,1R-RX1-24973-20170706662924,bidswitch,appnexus,-1,0,0,13
2017-07-25,1R-RX1-24973-20170706662924,bidswitch,pubmatic,-1,0,0,3
2017-07-25,1R-RX1-24973-20170706662924,bidswitch,sovrn,-1,0,0,7
2017-07-25,1R-RX1-24973-20170706662924,mediamathtest,sovrn,-1,0,0,3
2017-07-25,1R-RX1-24973-20170706662924,tradedesk,sovrn,-1,0,0,23
2017-07-25,1R-RX1-30247-20170127851378,bidswitch,appnexus,-1,53,60,139418
2017-07-25,1R-RX1-30247-20170127851378,bidswitch,floor6,-1,0,0,1735
2017-07-25,1R-RX1-30247-20170127851378,bidswitch,kiosked,-1,0,0,973
2017-07-25,1R-RX1-30247-20170127851378,bidswitch,monarchads,-1,0,0,2
2017-07-25,1R-RX1-30247-20170127851378,bidswitch,openx,-1,357,359,1179459
2017-07-25,1R-RX1-30247-20170127851378,bidswitch,pubmatic,-1,137,138,247667
2017-07-25,1R-RX1-30247-20170127851378,bidswitch,pulse,-1,94,102,112180
2017-07-25,1R-RX1-30247-20170127851378,bidswitch,rmp1r1,-1,12,12,14118
2017-07-25,1R-RX1-30247-20170127851378,bidswitch,rmpnet1,-1,0,0,538
2017-07-25,1R-RX1-30247-20170127851378,bidswitch,rubicon,-1,126,141,273828
2017-07-25,1R-RX1-30247-20170127851378,bidswitch,sonobi,-1,55,55,172772
2017-07-25,1R-RX1-30247-20170127851378,bidswitch,sovrn,-1,153,153,520418
2017-07-25,1R-RX1-30247-20170127851378,bidswitch,technorati,-1,1,1,3374
2017-07-25,1R-RX1-30247-20170127851378,bidswitch,underdogmedia,-1,0,0,5449
2017-07-25,1R-RX1-32115-20170623681196,bidswitch,appnexus,-1,0,0,13
2017-07-25,1R-RX1-32115-20170623681196,bidswitch,pubmatic,-1,0,0,3
2017-07-25,1R-RX1-32115-20170623681196,bidswitch,sovrn,-1,0,0,7
2017-07-25,1R-RX1-32115-20170623681196,mediamathtest,sovrn,-1,0,0,3
2017-07-25,1R-RX1-32115-20170623681196,tradedesk,rmp1r1,-1,0,0,42
2017-07-25,1R-RX1-32115-20170623681196,tradedesk,sovrn,-1,0,0,23
2017-07-25,1R-RX1-47436-20170711475615,nuviad,appnexus,-1,0,100,832
2017-07-25,1R-RX1-47436-20170711475615,nuviad,kiosked,-1,0,0,2
2017-07-25,1R-RX1-47436-20170711475615,nuviad,monarchads,-1,0,0,1
2017-07-25,1R-RX1-47436-20170711475615,nuviad,nativeads,-1,0,0,41
2017-07-25,1R-RX1-47436-20170711475615,nuviad,pubmatic,-1,0,2,91
2017-07-25,1R-RX1-47436-20170711475615,nuviad,pulse,-1,0,12,886
2017-07-25,1R-RX1-47436-20170711475615,nuviad,rmp1r1,-1,0,4,1668
2017-07-25,1R-RX1-47436-20170711475615,nuviad,rmphb,-1,0,377,7954
2017-07-25,1R-RX1-47436-20170711475615,nuviad,sonobi,-1,0,66,1463
2017-07-25,1R-RX1-47436-20170711475615,nuviad,switchconcepts,-1,0,0,1
2017-07-25,1R-RX1-48721-20170714691888,tradedesk,operamedia,-1,0,0,4
2017-07-25,1R-RX1-48721-20170714691888,tradedesk,rmp1r1,-1,0,0,8
2017-07-25,1R-RX1-48721-20170714691888,tradedesk,rmphb,-1,0,34,6220
2017-07-25,1R-RX1-48721-20170714691888,tradedesk,rubicon,-1,0,0,470
2017-07-25,1R-RX1-48721-20170714691888,tradedesk,sonobi,-1,0,218,5142
2017-07-25,1R-RX1-48721-20170714691888,tradedesk,sovrn,-1,0,0,11972
2017-07-25,1R-RX1-48721-20170714691888,tradedesk,underdogmedia,-1,0,0,1923
2017-07-25,1R-RX1-48721-20170714691888,tradedeskex,pubmatic,-1,0,0,2618
2017-07-25,1R-RX1-52990-20170615086651,tradedesk,floor6,-1,0,0,1351
2017-07-25,1R-RX1-52990-20170615086651,tradedesk,mobfox,-1,0,0,1440193
2017-07-25,1R-RX1-52990-20170615086651,tradedesk,operamedia,-1,0,0,277459
2017-07-25,1R-RX1-52990-20170615086651,tradedesk,rmp1r1,-1,0,0,1409
2017-07-25,1R-RX1-52990-20170615086651,tradedesk,rmphb,-1,0,34,134380
2017-07-25,1R-RX1-52990-20170615086651,tradedesk,rmpssp,-1,0,0,60477
2017-07-25,1R-RX1-52990-20170615086651,tradedesk,rubicon,-1,0,0,1113438
2017-07-25,1R-RX1-52990-20170615086651,tradedesk,sonobi,-1,0,218,113801
2017-07-25,1R-RX1-52990-20170615086651,tradedesk,sovrn,-1,0,0,255373
2017-07-25,1R-RX1-52990-20170615086651,tradedesk,switchconcepts,-1,0,0,170
2017-07-25,1R-RX1-52990-20170615086651,tradedesk,technorati,-1,0,0,94
2017-07-25,1R-RX1-52990-20170615086651,tradedesk,underdogmedia,-1,0,0,3965
2017-07-25,1R-RX1-52990-20170615086651,tradedeskex,pubmatic,-1,0,0,36282
2017-07-25,1R-RX1-55683-20170314086472,mediamathtest,rmphb,-1,4822,4822,122848
2017-07-25,1R-RX1-55683-20170314086472,mediamathtest,rmpssp,-1,579,579,32861
2017-07-25,1R-RX1-56987-20170711365389,nuviad,appnexus,-1,0,100,837
2017-07-25,1R-RX1-56987-20170711365389,nuviad,kiosked,-1,0,0,2
2017-07-25,1R-RX1-56987-20170711365389,nuviad,monarchads,-1,0,0,1
2017-07-25,1R-RX1-56987-20170711365389,nuviad,nativeads,-1,0,0,41
2017-07-25,1R-RX1-56987-20170711365389,nuviad,pubmatic,-1,0,2,92
2017-07-25,1R-RX1-56987-20170711365389,nuviad,pulse,-1,0,12,888
2017-07-25,1R-RX1-56987-20170711365389,nuviad,rmp1r1,-1,0,4,1670
2017-07-25,1R-RX1-56987-20170711365389,nuviad,rmphb,-1,0,382,8463
2017-07-25,1R-RX1-56987-20170711365389,nuviad,sonobi,-1,0,66,1465
2017-07-25,1R-RX1-56987-20170711365389,nuviad,switchconcepts,-1,0,0,1
2017-07-25,1R-RX1-60960-20170420873644,mediamathtest,appnexus,-1,0,0,69546
2017-07-25,1R-RX1-60960-20170420873644,mediamathtest,floor6,-1,0,0,34664
2017-07-25,1R-RX1-60960-20170420873644,mediamathtest,kiosked,-1,0,0,8837
2017-07-25,1R-RX1-60960-20170420873644,mediamathtest,openx,-1,0,0,148629
2017-07-25,1R-RX1-60960-20170420873644,mediamathtest,pubmatic,-1,0,0,1287216
2017-07-25,1R-RX1-60960-20170420873644,mediamathtest,pulse,-1,0,0,285511
2017-07-25,1R-RX1-60960-20170420873644,mediamathtest,rmp1r1,-1,0,0,16936
2017-07-25,1R-RX1-60960-20170420873644,mediamathtest,rmpak1,-1,0,0,12
2017-07-25,1R-RX1-60960-20170420873644,mediamathtest,rmphb,-1,0,4648,482819
2017-07-25,1R-RX1-60960-20170420873644,mediamathtest,rmpssp,-1,0,547,145997
2017-07-25,1R-RX1-60960-20170420873644,mediamathtest,rubicon,-1,0,0,678897
2017-07-25,1R-RX1-60960-20170420873644,mediamathtest,sonobi,-1,0,0,839486
2017-07-25,1R-RX1-60960-20170420873644,mediamathtest,sovrn,-1,0,0,1349623
2017-07-25,1R-RX1-60960-20170420873644,mediamathtest,switchconcepts,-1,0,0,35109
2017-07-25,1R-RX1-60960-20170420873644,mediamathtest,teadstv,-1,0,0,3071
2017-07-25,1R-RX1-60960-20170420873644,mediamathtest,technorati,-1,0,0,5703
2017-07-25,1R-RX1-60960-20170420873644,mediamathtest,underdogmedia,-1,0,0,23115
2017-07-25,1R-RX1-62234-20170608324905,turn,rmphb,-1,0,0,707
2017-07-25,1R-RX1-62234-20170608324905,turn,rmpssp,-1,0,0,326
2017-07-25,1R-RX1-69109-20170713146865,turn,mobfox,-1,0,0,11
2017-07-25,1R-RX1-77968-20170208947875,bidswitch,appnexus,-1,6,8,1363
2017-07-25,1R-RX1-77968-20170208947875,bidswitch,openx,-1,0,0,48
2017-07-25,1R-RX1-77968-20170208947875,bidswitch,pubmatic,-1,0,0,2635
2017-07-25,1R-RX1-77968-20170208947875,bidswitch,pulse,-1,0,1,103
2017-07-25,1R-RX1-77968-20170208947875,bidswitch,rmp1r1,-1,0,0,25
2017-07-25,1R-RX1-77968-20170208947875,bidswitch,rubicon,-1,0,24,38758
2017-07-25,1R-RX1-77968-20170208947875,bidswitch,sonobi,-1,0,0,11
2017-07-25,1R-RX1-77968-20170208947875,bidswitch,sovrn,-1,0,0,29077
2017-07-25,1R-RX1-77968-20170208947875,bidswitchrmp,rmp1r1,-1,0,0,25
2017-07-25,1R-RX1-82655-20170630661336,mediamathtest,rmp1r1,-1,0,0,217
2017-07-25,1R-RX1-82655-20170630661336,mediamathtest,rmphb,-1,0,48,4213
2017-07-25,1R-RX1-82655-20170630661336,mediamathtest,rmpssp,-1,0,4,1147
2017-07-25,1R-RX1-89685-20170711510795,nuviad,appnexus,-1,100,100,837
2017-07-25,1R-RX1-89685-20170711510795,nuviad,kiosked,-1,0,0,2
2017-07-25,1R-RX1-89685-20170711510795,nuviad,monarchads,-1,0,0,1
2017-07-25,1R-RX1-89685-20170711510795,nuviad,nativeads,-1,0,0,41
2017-07-25,1R-RX1-89685-20170711510795,nuviad,pubmatic,-1,2,2,92
2017-07-25,1R-RX1-89685-20170711510795,nuviad,pulse,-1,12,12,888
2017-07-25,1R-RX1-89685-20170711510795,nuviad,rmp1r1,-1,4,4,1670
2017-07-25,1R-RX1-89685-20170711510795,nuviad,rmphb,-1,382,382,8463
2017-07-25,1R-RX1-89685-20170711510795,nuviad,sonobi,-1,66,66,1465
2017-07-25,1R-RX1-89685-20170711510795,nuviad,switchconcepts,-1,0,0,1
2017-07-25,1R-RX1-90097-20170712319534,bidswitch,appnexus,-1,0,0,1
2017-07-25,1R-RX1-90097-20170712319534,bidswitch,openx,-1,0,0,34
2017-07-25,1R-RX1-90097-20170712319534,bidswitch,pubmatic,-1,0,0,3
2017-07-25,1R-RX1-90097-20170712319534,bidswitch,pulse,-1,0,0,4
2017-07-25,1R-RX1-90097-20170712319534,bidswitch,rmp1r1,-1,0,0,1
2017-07-25,1R-RX1-90097-20170712319534,bidswitch,rubicon,-1,0,0,9
2017-07-25,1R-RX1-90097-20170712319534,bidswitch,sonobi,-1,0,0,14
2017-07-25,1R-RX1-90097-20170712319534,bidswitch,sovrn,-1,0,0,8
2017-07-25,1R-RX1-90097-20170712319534,turn,nativeads,-1,0,0,1
2017-07-25,1R-RX1-90097-20170712319534,turn,pubmatic,-1,0,0,3
2017-07-25,1R-RX1-90097-20170712319534,turn,pulse,-1,0,0,1
2017-07-25,1R-RX1-90097-20170712319534,turn,rmp1r1,-1,0,0,1
2017-07-25,1R-RX1-90097-20170712319534,turn,rmphb,-1,0,0,3
2017-07-25,1R-RX1-90097-20170712319534,turn,sonobi,-1,0,0,6
2017-07-25,1R-RX1-90097-20170712319534,turn,sovrn,-1,0,0,4
2017-07-25,1R-RX1-90762-20170714593244,tradedesk,rmp1r1,-1,0,0,4
2017-07-25,1R-RX1-90762-20170714593244,tradedesk,rmphb,-1,34,34,6220
2017-07-25,1R-RX1-90762-20170714593244,tradedesk,rmpssp,-1,0,0,48
2017-07-25,1R-RX1-90762-20170714593244,tradedesk,rubicon,-1,0,0,69
2017-07-25,1R-RX1-90762-20170714593244,tradedesk,sonobi,-1,218,218,5224
2017-07-25,1R-RX1-90762-20170714593244,tradedesk,sovrn,-1,0,0,115
2017-07-25,1R-RX1-90762-20170714593244,tradedesk,underdogmedia,-1,0,0,1923
2017-07-25,1R-RX1-90762-20170714593244,tradedeskex,pubmatic,-1,0,0,2885
2017-07-26,1R-RX1-09125-20170127248412,bidswitch,appnexus,0,0,0,120946
2017-07-26,1R-RX1-09125-20170127248412,bidswitch,appnexus,1,0,0,5111
2017-07-26,1R-RX1-09125-20170127248412,bidswitch,appnexus,3,0,0,812
2017-07-26,1R-RX1-09125-20170127248412,bidswitch,floor6,1,0,0,1105
2017-07-26,1R-RX1-09125-20170127248412,bidswitch,kiosked,1,0,0,27
2017-07-26,1R-RX1-09125-20170127248412,bidswitch,kiosked,3,0,0,141
2017-07-26,1R-RX1-09125-20170127248412,bidswitch,openx,0,0,2,592971
2017-07-26,1R-RX1-09125-20170127248412,bidswitch,pubmatic,0,0,0,17091
2017-07-26,1R-RX1-09125-20170127248412,bidswitch,pubmatic,1,0,1,5327
2017-07-26,1R-RX1-09125-20170127248412,bidswitch,pubmatic,3,0,0,7070
2017-07-26,1R-RX1-09125-20170127248412,bidswitch,pulse,0,0,0,1570
2017-07-26,1R-RX1-09125-20170127248412,bidswitch,pulse,1,0,0,15761
2017-07-26,1R-RX1-09125-20170127248412,bidswitch,pulse,3,0,0,2097
2017-07-26,1R-RX1-09125-20170127248412,bidswitch,rmp1r1,0,0,0,6
2017-07-26,1R-RX1-09125-20170127248412,bidswitch,rmp1r1,1,0,0,27
2017-07-26,1R-RX1-09125-20170127248412,bidswitch,rmp1r1,3,0,0,138
2017-07-26,1R-RX1-09125-20170127248412,bidswitch,rmpnet1,0,0,0,1
2017-07-26,1R-RX1-09125-20170127248412,bidswitch,rubicon,0,0,0,11680
2017-07-26,1R-RX1-09125-20170127248412,bidswitch,rubicon,1,0,1,38866
2017-07-26,1R-RX1-09125-20170127248412,bidswitch,rubicon,3,0,4,118030
2017-07-26,1R-RX1-09125-20170127248412,bidswitch,sonobi,0,0,0,84753
2017-07-26,1R-RX1-09125-20170127248412,bidswitch,sonobi,1,0,0,1431
2017-07-26,1R-RX1-09125-20170127248412,bidswitch,sonobi,3,0,0,1499
2017-07-26,1R-RX1-09125-20170127248412,bidswitch,sovrn,1,0,0,3670
2017-07-26,1R-RX1-09125-20170127248412,bidswitch,sovrn,3,0,1,307914
2017-07-26,1R-RX1-09125-20170127248412,bidswitch,teadstv,1,0,0,495
2017-07-26,1R-RX1-09125-20170127248412,bidswitch,technorati,1,0,0,270
2017-07-26,1R-RX1-09125-20170127248412,bidswitch,technorati,3,0,0,3
2017-07-26,1R-RX1-09125-20170127248412,bidswitch,underdogmedia,0,0,0,291
2017-07-26,1R-RX1-12027-20170706284008,bidswitch,appnexus,0,6,6,29999
2017-07-26,1R-RX1-12027-20170706284008,bidswitch,appnexus,1,0,0,37
2017-07-26,1R-RX1-12027-20170706284008,bidswitch,appnexus,3,0,0,141
2017-07-26,1R-RX1-12027-20170706284008,bidswitch,floor6,1,0,0,29514
2017-07-26,1R-RX1-12027-20170706284008,bidswitch,kiosked,1,0,0,23
2017-07-26,1R-RX1-12027-20170706284008,bidswitch,openx,0,80,82,1490285
2017-07-26,1R-RX1-12027-20170706284008,bidswitch,pubmatic,0,99,99,147915
2017-07-26,1R-RX1-12027-20170706284008,bidswitch,pubmatic,1,9,9,9621
2017-07-26,1R-RX1-12027-20170706284008,bidswitch,pubmatic,3,6,6,21128
2017-07-26,1R-RX1-12027-20170706284008,bidswitch,pulse,0,7,7,6361
2017-07-26,1R-RX1-12027-20170706284008,bidswitch,pulse,1,4,4,10242
2017-07-26,1R-RX1-12027-20170706284008,bidswitch,pulse,3,4,4,6778
2017-07-26,1R-RX1-12027-20170706284008,bidswitch,rmp1r1,1,0,0,2
2017-07-26,1R-RX1-12027-20170706284008,bidswitch,rmp1r1,3,0,0,104
2017-07-26,1R-RX1-12027-20170706284008,bidswitch,rubicon,0,5,7,54793
2017-07-26,1R-RX1-12027-20170706284008,bidswitch,rubicon,1,14,15,47067
2017-07-26,1R-RX1-12027-20170706284008,bidswitch,rubicon,3,90,90,375263
2017-07-26,1R-RX1-12027-20170706284008,bidswitch,sonobi,0,1,1,90423
2017-07-26,1R-RX1-12027-20170706284008,bidswitch,sonobi,1,0,0,2390
2017-07-26,1R-RX1-12027-20170706284008,bidswitch,sonobi,3,0,0,204
2017-07-26,1R-RX1-12027-20170706284008,bidswitch,sovrn,1,0,0,3970
2017-07-26,1R-RX1-12027-20170706284008,bidswitch,sovrn,3,1,2,160558
2017-07-26,1R-RX1-12027-20170706284008,bidswitch,teadstv,1,0,0,4
2017-07-26,1R-RX1-12027-20170706284008,bidswitch,technorati,1,0,0,281
2017-07-26,1R-RX1-12027-20170706284008,bidswitch,technorati,3,0,0,5
2017-07-26,1R-RX1-12027-20170706284008,bidswitch,underdogmedia,0,0,0,1286
2017-07-26,1R-RX1-12027-20170706284008,bidswitchrmp,rmp1r1,1,0,0,2
2017-07-26,1R-RX1-12027-20170706284008,bidswitchrmp,rmp1r1,3,0,0,90
2017-07-26,1R-RX1-12027-20170706284008,bidswitchrmp,rmphb,0,0,0,69163
2017-07-26,1R-RX1-12027-20170706284008,bidswitchrmp,rmphb,1,0,0,5140
2017-07-26,1R-RX1-12027-20170706284008,bidswitchrmp,rmphb,3,0,0,5707
2017-07-26,1R-RX1-12027-20170706284008,bidswitchrmp,rmphb,7,0,0,7272
2017-07-26,1R-RX1-12027-20170706284008,bidswitchrmp,rmpssp,0,0,0,29866
2017-07-26,1R-RX1-12027-20170706284008,mediamathtest,appnexus,0,0,0,22788
2017-07-26,1R-RX1-12027-20170706284008,mediamathtest,appnexus,1,0,0,36
2017-07-26,1R-RX1-12027-20170706284008,mediamathtest,appnexus,3,0,0,137
2017-07-26,1R-RX1-12027-20170706284008,mediamathtest,floor6,1,0,0,21006
2017-07-26,1R-RX1-12027-20170706284008,mediamathtest,kiosked,1,0,0,44
2017-07-26,1R-RX1-12027-20170706284008,mediamathtest,kiosked,3,0,0,30
2017-07-26,1R-RX1-12027-20170706284008,mediamathtest,pubmatic,0,0,0,177313
2017-07-26,1R-RX1-12027-20170706284008,mediamathtest,pubmatic,1,0,0,8799
2017-07-26,1R-RX1-12027-20170706284008,mediamathtest,pubmatic,3,0,0,12463
2017-07-26,1R-RX1-12027-20170706284008,mediamathtest,pulse,0,0,0,6448
2017-07-26,1R-RX1-12027-20170706284008,mediamathtest,pulse,1,0,0,11120
2017-07-26,1R-RX1-12027-20170706284008,mediamathtest,pulse,3,0,0,7216
2017-07-26,1R-RX1-12027-20170706284008,mediamathtest,rmp1r1,1,0,0,8
2017-07-26,1R-RX1-12027-20170706284008,mediamathtest,rmp1r1,3,0,0,105
2017-07-26,1R-RX1-12027-20170706284008,mediamathtest,rmphb,0,0,491,71529
2017-07-26,1R-RX1-12027-20170706284008,mediamathtest,rmphb,1,0,73,7649
2017-07-26,1R-RX1-12027-20170706284008,mediamathtest,rmphb,3,0,28,7345
2017-07-26,1R-RX1-12027-20170706284008,mediamathtest,rmphb,7,0,75,10281
2017-07-26,1R-RX1-12027-20170706284008,mediamathtest,rmpssp,0,0,3,23762
2017-07-26,1R-RX1-12027-20170706284008,mediamathtest,rubicon,0,0,0,60826
2017-07-26,1R-RX1-12027-20170706284008,mediamathtest,rubicon,1,0,0,61869
2017-07-26,1R-RX1-12027-20170706284008,mediamathtest,rubicon,3,0,0,413653
2017-07-26,1R-RX1-12027-20170706284008,mediamathtest,sonobi,0,0,0,85155
2017-07-26,1R-RX1-12027-20170706284008,mediamathtest,sonobi,1,0,0,2352
2017-07-26,1R-RX1-12027-20170706284008,mediamathtest,sonobi,3,0,0,183
2017-07-26,1R-RX1-12027-20170706284008,mediamathtest,sovrn,1,0,0,4727
2017-07-26,1R-RX1-12027-20170706284008,mediamathtest,sovrn,3,0,0,217548
2017-07-26,1R-RX1-12027-20170706284008,mediamathtest,switchconcepts,0,0,0,6619
2017-07-26,1R-RX1-12027-20170706284008,mediamathtest,teadstv,1,0,0,5
2017-07-26,1R-RX1-12027-20170706284008,mediamathtest,technorati,1,0,0,311
2017-07-26,1R-RX1-12027-20170706284008,mediamathtest,technorati,3,0,0,8
2017-07-26,1R-RX1-12027-20170706284008,mediamathtest,underdogmedia,0,0,0,963
2017-07-26,1R-RX1-12027-20170706284008,tradedesk,floor6,1,0,0,30039
2017-07-26,1R-RX1-12027-20170706284008,tradedesk,mobfox,0,0,0,781057
2017-07-26,1R-RX1-12027-20170706284008,tradedesk,operamedia,0,0,0,6487
2017-07-26,1R-RX1-12027-20170706284008,tradedesk,operamedia,1,0,0,27930
2017-07-26,1R-RX1-12027-20170706284008,tradedesk,operamedia,4,0,0,3
2017-07-26,1R-RX1-12027-20170706284008,tradedesk,operamedia,5,0,0,2
2017-07-26,1R-RX1-12027-20170706284008,tradedesk,operamedia,7,0,0,1
2017-07-26,1R-RX1-12027-20170706284008,tradedesk,rmp1r1,0,0,0,865
2017-07-26,1R-RX1-12027-20170706284008,tradedesk,rmp1r1,1,0,0,437
2017-07-26,1R-RX1-12027-20170706284008,tradedesk,rmp1r1,3,0,0,219
2017-07-26,1R-RX1-12027-20170706284008,tradedesk,rmphb,0,0,0,109170
2017-07-26,1R-RX1-12027-20170706284008,tradedesk,rmphb,1,0,0,12898
2017-07-26,1R-RX1-12027-20170706284008,tradedesk,rmphb,3,0,0,12566
2017-07-26,1R-RX1-12027-20170706284008,tradedesk,rmphb,7,0,0,16700
2017-07-26,1R-RX1-12027-20170706284008,tradedesk,rmpssp,0,0,0,38576
2017-07-26,1R-RX1-12027-20170706284008,tradedesk,rubicon,0,0,0,121715
2017-07-26,1R-RX1-12027-20170706284008,tradedesk,rubicon,1,0,0,120616
2017-07-26,1R-RX1-12027-20170706284008,tradedesk,rubicon,3,0,0,223297
2017-07-26,1R-RX1-12027-20170706284008,tradedesk,sonobi,0,0,0,49931
2017-07-26,1R-RX1-12027-20170706284008,tradedesk,sonobi,1,0,0,1590
2017-07-26,1R-RX1-12027-20170706284008,tradedesk,sonobi,3,0,0,275
2017-07-26,1R-RX1-12027-20170706284008,tradedesk,sovrn,1,0,0,10470
2017-07-26,1R-RX1-12027-20170706284008,tradedesk,sovrn,3,0,0,291252
2017-07-26,1R-RX1-12027-20170706284008,tradedesk,switchconcepts,0,0,0,5025
2017-07-26,1R-RX1-12027-20170706284008,tradedesk,technorati,1,0,0,367
2017-07-26,1R-RX1-12027-20170706284008,tradedesk,technorati,3,0,0,14
2017-07-26,1R-RX1-12027-20170706284008,tradedesk,underdogmedia,0,0,0,889
2017-07-26,1R-RX1-12027-20170706284008,tradedeskex,pubmatic,0,0,0,12947
2017-07-26,1R-RX1-12027-20170706284008,tradedeskex,pubmatic,1,0,0,6892
2017-07-26,1R-RX1-12027-20170706284008,tradedeskex,pubmatic,3,0,0,1410
2017-07-26,1R-RX1-13678-20170711407663,nuviad,appnexus,0,0,0,777
2017-07-26,1R-RX1-13678-20170711407663,nuviad,appnexus,1,0,0,5
2017-07-26,1R-RX1-13678-20170711407663,nuviad,kiosked,1,0,0,1
2017-07-26,1R-RX1-13678-20170711407663,nuviad,monarchads,0,0,0,1
2017-07-26,1R-RX1-13678-20170711407663,nuviad,nativeads,0,0,0,11
2017-07-26,1R-RX1-13678-20170711407663,nuviad,nativeads,1,0,0,68
2017-07-26,1R-RX1-13678-20170711407663,nuviad,nativeads,4,0,0,1
2017-07-26,1R-RX1-13678-20170711407663,nuviad,nativeads,7,0,0,3
2017-07-26,1R-RX1-13678-20170711407663,nuviad,operamedia,0,0,0,2
2017-07-26,1R-RX1-13678-20170711407663,nuviad,pulse,0,0,0,21
2017-07-26,1R-RX1-13678-20170711407663,nuviad,pulse,1,0,1,601
2017-07-26,1R-RX1-13678-20170711407663,nuviad,pulse,3,0,0,53
2017-07-26,1R-RX1-13678-20170711407663,nuviad,rmp1r1,0,0,0,2
2017-07-26,1R-RX1-13678-20170711407663,nuviad,rmp1r1,1,0,0,1236
2017-07-26,1R-RX1-13678-20170711407663,nuviad,rmp1r1,3,0,0,784
2017-07-26,1R-RX1-13678-20170711407663,nuviad,rmphb,0,0,99,7162
2017-07-26,1R-RX1-13678-20170711407663,nuviad,rmphb,1,0,0,1033
2017-07-26,1R-RX1-13678-20170711407663,nuviad,rmphb,3,0,0,727
2017-07-26,1R-RX1-13678-20170711407663,nuviad,rmphb,7,0,0,1525
2017-07-26,1R-RX1-13678-20170711407663,nuviad,sonobi,0,0,12,1043
2017-07-26,1R-RX1-13678-20170711407663,nuviad,sonobi,1,0,0,109
2017-07-26,1R-RX1-13678-20170711407663,nuviad,sonobi,3,0,0,50
2017-07-26,1R-RX1-13678-20170711407663,nuviad,switchconcepts,0,0,0,2
2017-07-26,1R-RX1-24973-20170706662924,bidswitch,appnexus,0,0,0,4
2017-07-26,1R-RX1-24973-20170706662924,bidswitch,pubmatic,0,0,0,1
2017-07-26,1R-RX1-24973-20170706662924,bidswitch,sovrn,3,0,0,8
2017-07-26,1R-RX1-24973-20170706662924,tradedesk,sovrn,3,0,0,20
2017-07-26,1R-RX1-30247-20170127851378,bidswitch,appnexus,0,25,25,106340
2017-07-26,1R-RX1-30247-20170127851378,bidswitch,appnexus,1,0,7,3132
2017-07-26,1R-RX1-30247-20170127851378,bidswitch,appnexus,3,0,0,2014
2017-07-26,1R-RX1-30247-20170127851378,bidswitch,floor6,1,0,0,1531
2017-07-26,1R-RX1-30247-20170127851378,bidswitch,kiosked,1,0,0,119
2017-07-26,1R-RX1-30247-20170127851378,bidswitch,kiosked,3,0,0,916
2017-07-26,1R-RX1-30247-20170127851378,bidswitch,monarchads,0,0,0,4
2017-07-26,1R-RX1-30247-20170127851378,bidswitch,openx,0,302,305,1288428
2017-07-26,1R-RX1-30247-20170127851378,bidswitch,pubmatic,0,33,33,63004
2017-07-26,1R-RX1-30247-20170127851378,bidswitch,pubmatic,1,20,21,12256
2017-07-26,1R-RX1-30247-20170127851378,bidswitch,pubmatic,3,18,19,35087
2017-07-26,1R-RX1-30247-20170127851378,bidswitch,pulse,0,2,6,60158
2017-07-26,1R-RX1-30247-20170127851378,bidswitch,pulse,1,89,89,45238
2017-07-26,1R-RX1-30247-20170127851378,bidswitch,pulse,3,2,2,30445
2017-07-26,1R-RX1-30247-20170127851378,bidswitch,rmp1r1,0,0,0,190
2017-07-26,1R-RX1-30247-20170127851378,bidswitch,rmp1r1,1,5,5,2929
2017-07-26,1R-RX1-30247-20170127851378,bidswitch,rmp1r1,3,1,1,8855
2017-07-26,1R-RX1-30247-20170127851378,bidswitch,rmp1r1,7,0,0,136
2017-07-26,1R-RX1-30247-20170127851378,bidswitch,rmpnet1,0,0,0,22
2017-07-26,1R-RX1-30247-20170127851378,bidswitch,rubicon,0,11,14,32770
2017-07-26,1R-RX1-30247-20170127851378,bidswitch,rubicon,1,97,98,53986
2017-07-26,1R-RX1-30247-20170127851378,bidswitch,rubicon,3,46,53,205382
2017-07-26,1R-RX1-30247-20170127851378,bidswitch,sonobi,0,58,58,176403
2017-07-26,1R-RX1-30247-20170127851378,bidswitch,sonobi,1,0,0,6320
2017-07-26,1R-RX1-30247-20170127851378,bidswitch,sonobi,3,0,0,1536
2017-07-26,1R-RX1-30247-20170127851378,bidswitch,sovrn,1,7,7,28211
2017-07-26,1R-RX1-30247-20170127851378,bidswitch,sovrn,3,169,169,520393
2017-07-26,1R-RX1-30247-20170127851378,bidswitch,technorati,1,0,0,2484
2017-07-26,1R-RX1-30247-20170127851378,bidswitch,technorati,3,0,0,18
2017-07-26,1R-RX1-30247-20170127851378,bidswitch,underdogmedia,0,0,0,5291
2017-07-26,1R-RX1-32115-20170623681196,bidswitch,appnexus,0,0,0,4
2017-07-26,1R-RX1-32115-20170623681196,bidswitch,pubmatic,0,0,0,1
2017-07-26,1R-RX1-32115-20170623681196,bidswitch,sovrn,3,0,0,8
2017-07-26,1R-RX1-32115-20170623681196,tradedesk,rmp1r1,0,0,0,11
2017-07-26,1R-RX1-32115-20170623681196,tradedesk,rmp1r1,1,0,0,4
2017-07-26,1R-RX1-32115-20170623681196,tradedesk,rmp1r1,3,0,0,7
2017-07-26,1R-RX1-32115-20170623681196,tradedesk,sovrn,3,0,0,20
2017-07-26,1R-RX1-47436-20170711475615,nuviad,appnexus,0,0,0,777
2017-07-26,1R-RX1-47436-20170711475615,nuviad,appnexus,1,0,0,5
2017-07-26,1R-RX1-47436-20170711475615,nuviad,kiosked,1,0,0,1
2017-07-26,1R-RX1-47436-20170711475615,nuviad,monarchads,0,0,0,1
2017-07-26,1R-RX1-47436-20170711475615,nuviad,nativeads,0,0,0,11
2017-07-26,1R-RX1-47436-20170711475615,nuviad,nativeads,1,0,0,68
2017-07-26,1R-RX1-47436-20170711475615,nuviad,nativeads,4,0,0,1
2017-07-26,1R-RX1-47436-20170711475615,nuviad,nativeads,7,0,0,3
2017-07-26,1R-RX1-47436-20170711475615,nuviad,operamedia,0,0,0,2
2017-07-26,1R-RX1-47436-20170711475615,nuviad,pulse,0,0,0,21
2017-07-26,1R-RX1-47436-20170711475615,nuviad,pulse,1,0,1,601
2017-07-26,1R-RX1-47436-20170711475615,nuviad,pulse,3,0,0,53
2017-07-26,1R-RX1-47436-20170711475615,nuviad,rmp1r1,0,0,0,2
2017-07-26,1R-RX1-47436-20170711475615,nuviad,rmp1r1,1,0,0,1236
2017-07-26,1R-RX1-47436-20170711475615,nuviad,rmp1r1,3,0,0,784
2017-07-26,1R-RX1-47436-20170711475615,nuviad,rmphb,0,0,99,7162
2017-07-26,1R-RX1-47436-20170711475615,nuviad,rmphb,1,0,0,1033
2017-07-26,1R-RX1-47436-20170711475615,nuviad,rmphb,3,0,0,727
2017-07-26,1R-RX1-47436-20170711475615,nuviad,rmphb,7,0,0,1525
2017-07-26,1R-RX1-47436-20170711475615,nuviad,sonobi,0,0,12,1043
2017-07-26,1R-RX1-47436-20170711475615,nuviad,sonobi,1,0,0,109
2017-07-26,1R-RX1-47436-20170711475615,nuviad,sonobi,3,0,0,50
2017-07-26,1R-RX1-47436-20170711475615,nuviad,switchconcepts,0,0,0,2
2017-07-26,1R-RX1-48721-20170714691888,tradedesk,rmp1r1,0,0,0,3
2017-07-26,1R-RX1-48721-20170714691888,tradedesk,rmp1r1,1,0,0,1
2017-07-26,1R-RX1-48721-20170714691888,tradedesk,rmphb,0,0,41,2874
2017-07-26,1R-RX1-48721-20170714691888,tradedesk,rmphb,1,0,4,906
2017-07-26,1R-RX1-48721-20170714691888,tradedesk,rmphb,3,0,0,384
2017-07-26,1R-RX1-48721-20170714691888,tradedesk,rmphb,7,0,3,1317
2017-07-26,1R-RX1-48721-20170714691888,tradedesk,rubicon,0,0,0,468
2017-07-26,1R-RX1-48721-20170714691888,tradedesk,rubicon,3,0,0,9
2017-07-26,1R-RX1-48721-20170714691888,tradedesk,sonobi,0,0,257,4730
2017-07-26,1R-RX1-48721-20170714691888,tradedesk,sovrn,1,0,0,26
2017-07-26,1R-RX1-48721-20170714691888,tradedesk,sovrn,3,0,0,10714
2017-07-26,1R-RX1-48721-20170714691888,tradedesk,underdogmedia,0,0,0,1357
2017-07-26,1R-RX1-48721-20170714691888,tradedeskex,pubmatic,0,0,0,2480
2017-07-26,1R-RX1-48721-20170714691888,tradedeskex,pubmatic,1,0,0,24
2017-07-26,1R-RX1-48721-20170714691888,tradedeskex,pubmatic,3,0,0,56
2017-07-26,1R-RX1-52990-20170615086651,tradedesk,floor6,1,0,0,1156
2017-07-26,1R-RX1-52990-20170615086651,tradedesk,mobfox,0,0,0,1330687
2017-07-26,1R-RX1-52990-20170615086651,tradedesk,mobfox,7,0,0,2199
2017-07-26,1R-RX1-52990-20170615086651,tradedesk,operamedia,0,0,0,76118
2017-07-26,1R-RX1-52990-20170615086651,tradedesk,operamedia,1,0,0,205807
2017-07-26,1R-RX1-52990-20170615086651,tradedesk,operamedia,3,0,0,6
2017-07-26,1R-RX1-52990-20170615086651,tradedesk,operamedia,4,0,0,1104
2017-07-26,1R-RX1-52990-20170615086651,tradedesk,operamedia,5,0,0,545
2017-07-26,1R-RX1-52990-20170615086651,tradedesk,operamedia,7,0,0,10
2017-07-26,1R-RX1-52990-20170615086651,tradedesk,rmp1r1,0,0,0,595
2017-07-26,1R-RX1-52990-20170615086651,tradedesk,rmp1r1,1,0,0,401
2017-07-26,1R-RX1-52990-20170615086651,tradedesk,rmp1r1,3,0,0,281
2017-07-26,1R-RX1-52990-20170615086651,tradedesk,rmp1r1,7,0,0,27
2017-07-26,1R-RX1-52990-20170615086651,tradedesk,rmphb,0,0,41,100621
2017-07-26,1R-RX1-52990-20170615086651,tradedesk,rmphb,1,0,4,15026
2017-07-26,1R-RX1-52990-20170615086651,tradedesk,rmphb,3,0,0,10648
2017-07-26,1R-RX1-52990-20170615086651,tradedesk,rmphb,7,0,3,20485
2017-07-26,1R-RX1-52990-20170615086651,tradedesk,rmpssp,0,0,0,42796
2017-07-26,1R-RX1-52990-20170615086651,tradedesk,rmpssp,1,0,0,662
2017-07-26,1R-RX1-52990-20170615086651,tradedesk,rmpssp,3,0,0,1421
2017-07-26,1R-RX1-52990-20170615086651,tradedesk,rmpssp,4,0,0,38
2017-07-26,1R-RX1-52990-20170615086651,tradedesk,rmpssp,7,0,0,697
2017-07-26,1R-RX1-52990-20170615086651,tradedesk,rubicon,0,0,0,461963
2017-07-26,1R-RX1-52990-20170615086651,tradedesk,rubicon,1,0,0,449563
2017-07-26,1R-RX1-52990-20170615086651,tradedesk,rubicon,3,0,0,40199
2017-07-26,1R-RX1-52990-20170615086651,tradedesk,sonobi,0,0,258,120733
2017-07-26,1R-RX1-52990-20170615086651,tradedesk,sonobi,1,0,0,5747
2017-07-26,1R-RX1-52990-20170615086651,tradedesk,sonobi,3,0,0,5148
2017-07-26,1R-RX1-52990-20170615086651,tradedesk,sovrn,1,0,0,3265
2017-07-26,1R-RX1-52990-20170615086651,tradedesk,sovrn,3,0,0,233340
2017-07-26,1R-RX1-52990-20170615086651,tradedesk,switchconcepts,0,0,0,134
2017-07-26,1R-RX1-52990-20170615086651,tradedesk,technorati,1,0,0,62
2017-07-26,1R-RX1-52990-20170615086651,tradedesk,underdogmedia,0,0,0,3080
2017-07-26,1R-RX1-52990-20170615086651,tradedeskex,pubmatic,0,0,0,25707
2017-07-26,1R-RX1-52990-20170615086651,tradedeskex,pubmatic,1,0,0,6843
2017-07-26,1R-RX1-52990-20170615086651,tradedeskex,pubmatic,3,0,0,5897
2017-07-26,1R-RX1-55683-20170314086472,mediamathtest,rmphb,0,2938,2938,95946
2017-07-26,1R-RX1-55683-20170314086472,mediamathtest,rmphb,1,734,734,15943
2017-07-26,1R-RX1-55683-20170314086472,mediamathtest,rmphb,3,257,257,8803
2017-07-26,1R-RX1-55683-20170314086472,mediamathtest,rmphb,7,700,700,18792
2017-07-26,1R-RX1-55683-20170314086472,mediamathtest,rmpssp,0,583,583,32401
2017-07-26,1R-RX1-56987-20170711365389,nuviad,appnexus,0,0,0,777
2017-07-26,1R-RX1-56987-20170711365389,nuviad,appnexus,1,0,0,5
2017-07-26,1R-RX1-56987-20170711365389,nuviad,kiosked,1,0,0,1
2017-07-26,1R-RX1-56987-20170711365389,nuviad,monarchads,0,0,0,1
2017-07-26,1R-RX1-56987-20170711365389,nuviad,nativeads,0,0,0,12
2017-07-26,1R-RX1-56987-20170711365389,nuviad,nativeads,1,0,0,68
2017-07-26,1R-RX1-56987-20170711365389,nuviad,nativeads,4,0,0,1
2017-07-26,1R-RX1-56987-20170711365389,nuviad,nativeads,7,0,0,3
2017-07-26,1R-RX1-56987-20170711365389,nuviad,operamedia,0,0,0,2
2017-07-26,1R-RX1-56987-20170711365389,nuviad,pulse,0,0,0,21
2017-07-26,1R-RX1-56987-20170711365389,nuviad,pulse,1,0,1,601
2017-07-26,1R-RX1-56987-20170711365389,nuviad,pulse,3,0,0,53
2017-07-26,1R-RX1-56987-20170711365389,nuviad,rmp1r1,0,0,0,2
2017-07-26,1R-RX1-56987-20170711365389,nuviad,rmp1r1,1,0,0,1236
2017-07-26,1R-RX1-56987-20170711365389,nuviad,rmp1r1,3,0,0,785
2017-07-26,1R-RX1-56987-20170711365389,nuviad,rmphb,0,0,103,7551
2017-07-26,1R-RX1-56987-20170711365389,nuviad,rmphb,1,0,0,1083
2017-07-26,1R-RX1-56987-20170711365389,nuviad,rmphb,3,0,1,757
2017-07-26,1R-RX1-56987-20170711365389,nuviad,rmphb,7,0,0,1594
2017-07-26,1R-RX1-56987-20170711365389,nuviad,sonobi,0,0,12,1046
2017-07-26,1R-RX1-56987-20170711365389,nuviad,sonobi,1,0,0,109
2017-07-26,1R-RX1-56987-20170711365389,nuviad,sonobi,3,0,0,50
2017-07-26,1R-RX1-56987-20170711365389,nuviad,switchconcepts,0,0,0,2
2017-07-26,1R-RX1-60960-20170420873644,mediamathtest,appnexus,0,0,0,28793
2017-07-26,1R-RX1-60960-20170420873644,mediamathtest,appnexus,1,0,0,251
2017-07-26,1R-RX1-60960-20170420873644,mediamathtest,appnexus,3,0,0,675
2017-07-26,1R-RX1-60960-20170420873644,mediamathtest,floor6,1,0,0,22206
2017-07-26,1R-RX1-60960-20170420873644,mediamathtest,kiosked,1,0,0,3241
2017-07-26,1R-RX1-60960-20170420873644,mediamathtest,kiosked,3,0,0,265
2017-07-26,1R-RX1-60960-20170420873644,mediamathtest,pubmatic,0,0,0,239603
2017-07-26,1R-RX1-60960-20170420873644,mediamathtest,pubmatic,1,0,0,38432
2017-07-26,1R-RX1-60960-20170420873644,mediamathtest,pubmatic,3,0,0,45985
2017-07-26,1R-RX1-60960-20170420873644,mediamathtest,pulse,0,0,0,2147
2017-07-26,1R-RX1-60960-20170420873644,mediamathtest,pulse,1,0,0,28568
2017-07-26,1R-RX1-60960-20170420873644,mediamathtest,pulse,3,0,0,11415
2017-07-26,1R-RX1-60960-20170420873644,mediamathtest,rmp1r1,0,0,0,2
2017-07-26,1R-RX1-60960-20170420873644,mediamathtest,rmp1r1,1,0,0,300
2017-07-26,1R-RX1-60960-20170420873644,mediamathtest,rmp1r1,3,0,0,121
2017-07-26,1R-RX1-60960-20170420873644,mediamathtest,rmphb,0,0,527,82379
2017-07-26,1R-RX1-60960-20170420873644,mediamathtest,rmphb,1,0,81,10458
2017-07-26,1R-RX1-60960-20170420873644,mediamathtest,rmphb,3,0,32,8594
2017-07-26,1R-RX1-60960-20170420873644,mediamathtest,rmphb,7,0,82,13596
2017-07-26,1R-RX1-60960-20170420873644,mediamathtest,rmpssp,0,0,3,26924
2017-07-26,1R-RX1-60960-20170420873644,mediamathtest,rubicon,0,0,0,78770
2017-07-26,1R-RX1-60960-20170420873644,mediamathtest,rubicon,1,0,0,99058
2017-07-26,1R-RX1-60960-20170420873644,mediamathtest,rubicon,3,0,0,599543
2017-07-26,1R-RX1-60960-20170420873644,mediamathtest,sonobi,0,0,0,134635
2017-07-26,1R-RX1-60960-20170420873644,mediamathtest,sonobi,1,0,0,2988
2017-07-26,1R-RX1-60960-20170420873644,mediamathtest,sonobi,3,0,0,358
2017-07-26,1R-RX1-60960-20170420873644,mediamathtest,sovrn,1,0,0,9851
2017-07-26,1R-RX1-60960-20170420873644,mediamathtest,sovrn,3,0,0,272455
2017-07-26,1R-RX1-60960-20170420873644,mediamathtest,switchconcepts,0,0,0,16092
2017-07-26,1R-RX1-60960-20170420873644,mediamathtest,teadstv,1,0,0,5
2017-07-26,1R-RX1-60960-20170420873644,mediamathtest,technorati,1,0,0,511
2017-07-26,1R-RX1-60960-20170420873644,mediamathtest,technorati,3,0,0,69
2017-07-26,1R-RX1-60960-20170420873644,mediamathtest,underdogmedia,0,0,0,2497
2017-07-26,1R-RX1-77968-20170208947875,bidswitch,appnexus,1,7,7,496
2017-07-26,1R-RX1-77968-20170208947875,bidswitch,appnexus,3,0,0,28
2017-07-26,1R-RX1-77968-20170208947875,bidswitch,openx,0,0,0,56
2017-07-26,1R-RX1-77968-20170208947875,bidswitch,pubmatic,0,0,0,562
2017-07-26,1R-RX1-77968-20170208947875,bidswitch,pubmatic,1,0,0,4
2017-07-26,1R-RX1-77968-20170208947875,bidswitch,pubmatic,3,0,0,22
2017-07-26,1R-RX1-77968-20170208947875,bidswitch,pulse,0,0,0,24
2017-07-26,1R-RX1-77968-20170208947875,bidswitch,pulse,1,0,0,70
2017-07-26,1R-RX1-77968-20170208947875,bidswitch,pulse,3,0,0,1
2017-07-26,1R-RX1-77968-20170208947875,bidswitch,rmp1r1,0,0,0,3
2017-07-26,1R-RX1-77968-20170208947875,bidswitch,rmp1r1,1,0,0,6
2017-07-26,1R-RX1-77968-20170208947875,bidswitch,rmp1r1,3,0,0,12
2017-07-26,1R-RX1-77968-20170208947875,bidswitch,rmp1r1,7,0,0,1
2017-07-26,1R-RX1-77968-20170208947875,bidswitch,rubicon,0,0,0,347
2017-07-26,1R-RX1-77968-20170208947875,bidswitch,rubicon,3,0,23,37501
2017-07-26,1R-RX1-77968-20170208947875,bidswitch,sonobi,0,0,0,10
2017-07-26,1R-RX1-77968-20170208947875,bidswitch,sovrn,1,0,0,5
2017-07-26,1R-RX1-77968-20170208947875,bidswitch,sovrn,3,0,0,32913
2017-07-26,1R-RX1-77968-20170208947875,bidswitchrmp,rmp1r1,0,0,0,3
2017-07-26,1R-RX1-77968-20170208947875,bidswitchrmp,rmp1r1,1,0,0,5
2017-07-26,1R-RX1-77968-20170208947875,bidswitchrmp,rmp1r1,3,0,0,12
2017-07-26,1R-RX1-77968-20170208947875,bidswitchrmp,rmp1r1,7,0,0,1
2017-07-26,1R-RX1-89685-20170711510795,nuviad,appnexus,0,0,0,777
2017-07-26,1R-RX1-89685-20170711510795,nuviad,appnexus,1,0,0,5
2017-07-26,1R-RX1-89685-20170711510795,nuviad,kiosked,1,0,0,1
2017-07-26,1R-RX1-89685-20170711510795,nuviad,monarchads,0,0,0,1
2017-07-26,1R-RX1-89685-20170711510795,nuviad,nativeads,0,0,0,12
2017-07-26,1R-RX1-89685-20170711510795,nuviad,nativeads,1,0,0,68
2017-07-26,1R-RX1-89685-20170711510795,nuviad,nativeads,4,0,0,1
2017-07-26,1R-RX1-89685-20170711510795,nuviad,nativeads,7,0,0,3
2017-07-26,1R-RX1-89685-20170711510795,nuviad,operamedia,0,0,0,2
2017-07-26,1R-RX1-89685-20170711510795,nuviad,pulse,0,0,0,21
2017-07-26,1R-RX1-89685-20170711510795,nuviad,pulse,1,1,1,601
2017-07-26,1R-RX1-89685-20170711510795,nuviad,pulse,3,0,0,53
2017-07-26,1R-RX1-89685-20170711510795,nuviad,rmp1r1,0,0,0,2
2017-07-26,1R-RX1-89685-20170711510795,nuviad,rmp1r1,1,0,0,1236
2017-07-26,1R-RX1-89685-20170711510795,nuviad,rmp1r1,3,0,0,785
2017-07-26,1R-RX1-89685-20170711510795,nuviad,rmphb,0,103,103,7551
2017-07-26,1R-RX1-89685-20170711510795,nuviad,rmphb,1,0,0,1083
2017-07-26,1R-RX1-89685-20170711510795,nuviad,rmphb,3,1,1,757
2017-07-26,1R-RX1-89685-20170711510795,nuviad,rmphb,7,0,0,1594
2017-07-26,1R-RX1-89685-20170711510795,nuviad,sonobi,0,12,12,1046
2017-07-26,1R-RX1-89685-20170711510795,nuviad,sonobi,1,0,0,109
2017-07-26,1R-RX1-89685-20170711510795,nuviad,sonobi,3,0,0,50
2017-07-26,1R-RX1-89685-20170711510795,nuviad,switchconcepts,0,0,0,2
2017-07-26,1R-RX1-90097-20170712319534,bidswitch,openx,0,0,0,26
2017-07-26,1R-RX1-90097-20170712319534,bidswitch,pubmatic,0,0,0,5
2017-07-26,1R-RX1-90097-20170712319534,bidswitch,pulse,1,0,0,3
2017-07-26,1R-RX1-90097-20170712319534,bidswitch,rubicon,0,0,0,1
2017-07-26,1R-RX1-90097-20170712319534,bidswitch,rubicon,3,0,0,9
2017-07-26,1R-RX1-90097-20170712319534,bidswitch,sonobi,0,0,0,7
2017-07-26,1R-RX1-90097-20170712319534,bidswitch,sonobi,1,0,0,3
2017-07-26,1R-RX1-90097-20170712319534,bidswitch,sonobi,3,0,0,3
2017-07-26,1R-RX1-90097-20170712319534,bidswitch,sovrn,1,0,0,2
2017-07-26,1R-RX1-90097-20170712319534,bidswitch,sovrn,3,0,0,3
2017-07-26,1R-RX1-90097-20170712319534,turn,pubmatic,0,0,0,2
2017-07-26,1R-RX1-90097-20170712319534,turn,pubmatic,3,0,0,2
2017-07-26,1R-RX1-90097-20170712319534,turn,pulse,1,0,0,2
2017-07-26,1R-RX1-90097-20170712319534,turn,rmphb,0,0,0,1
2017-07-26,1R-RX1-90097-20170712319534,turn,sonobi,0,0,0,12
2017-07-26,1R-RX1-90097-20170712319534,turn,sonobi,1,0,0,4
2017-07-26,1R-RX1-90097-20170712319534,turn,sovrn,1,0,0,1
2017-07-26,1R-RX1-90097-20170712319534,turn,sovrn,3,0,0,2
2017-07-26,1R-RX1-90762-20170714593244,tradedesk,rmp1r1,3,0,0,1
2017-07-26,1R-RX1-90762-20170714593244,tradedesk,rmphb,0,41,41,2874
2017-07-26,1R-RX1-90762-20170714593244,tradedesk,rmphb,1,4,4,906
2017-07-26,1R-RX1-90762-20170714593244,tradedesk,rmphb,3,0,0,384
2017-07-26,1R-RX1-90762-20170714593244,tradedesk,rmphb,7,3,3,1317
2017-07-26,1R-RX1-90762-20170714593244,tradedesk,rmpssp,0,0,0,51
2017-07-26,1R-RX1-90762-20170714593244,tradedesk,rubicon,3,0,0,48
2017-07-26,1R-RX1-90762-20170714593244,tradedesk,sonobi,0,258,258,4788
2017-07-26,1R-RX1-90762-20170714593244,tradedesk,sonobi,1,0,0,1
2017-07-26,1R-RX1-90762-20170714593244,tradedesk,sovrn,3,0,0,131
2017-07-26,1R-RX1-90762-20170714593244,tradedesk,underdogmedia,0,0,0,1357
2017-07-26,1R-RX1-90762-20170714593244,tradedeskex,pubmatic,0,0,0,2481
2017-07-26,1R-RX1-90762-20170714593244,tradedeskex,pubmatic,1,0,0,4
2017-07-26,1R-RX1-90762-20170714593244,tradedeskex,pubmatic,3,0,0,463
